(kicad_sch (version 20210126) (generator eeschema)

  (paper "A4")

  (lib_symbols
    (symbol "Aethon:SI2301B" (pin_names hide) (in_bom yes) (on_board yes)
      (property "Reference" "Q" (id 0) (at 5.08 1.905 0)
        (effects (font (size 1.27 1.27)) (justify left))
      )
      (property "Value" "SI2301B" (id 1) (at 5.08 0 0)
        (effects (font (size 1.27 1.27)) (justify left))
      )
      (property "Footprint" "Package_TO_SOT_SMD:SOT-23" (id 2) (at 5.08 -1.905 0)
        (effects (font (size 1.27 1.27)) (justify left) hide)
      )
      (property "Datasheet" "https://datasheet.lcsc.com/szlcsc/1912111437_UMW-Youtai-Semiconductor-Co-Ltd-SI2301B_C359103.pdf" (id 3) (at 2.54 0 0)
        (effects (font (size 1.27 1.27)) (justify left) hide)
      )
      (property "LCSC" "C359103" (id 4) (at 9.398 -2.032 0)
        (effects (font (size 1.27 1.27)))
      )
      (property "ki_keywords" "UMW SI2301B P-Channel MOSFET" (id 5) (at 0 0 0)
        (effects (font (size 1.27 1.27)) hide)
      )
      (property "ki_description" "2.5A Id, -20V Vds, P-Channel MOSFET, SOT-23" (id 6) (at 0 0 0)
        (effects (font (size 1.27 1.27)) hide)
      )
      (property "ki_fp_filters" "SOIC*3.9x4.9mm*P1.27mm*" (id 7) (at 0 0 0)
        (effects (font (size 1.27 1.27)) hide)
      )
      (symbol "SI2301B_0_0"
        (pin passive line (at 2.54 5.08 270) (length 2.54)
          (name "D" (effects (font (size 1.27 1.27))))
          (number "3" (effects (font (size 1.27 1.27))))
        )
      )
      (symbol "SI2301B_0_1"
        (circle (center 1.651 0) (radius 2.794) (stroke (width 0.254)) (fill (type none)))
        (circle (center 2.54 -1.778) (radius 0.254) (stroke (width 0)) (fill (type outline)))
        (circle (center 2.54 1.778) (radius 0.254) (stroke (width 0)) (fill (type outline)))
        (polyline
          (pts
            (xy 0.254 0)
            (xy -2.54 0)
          )
          (stroke (width 0)) (fill (type none))
        )
        (polyline
          (pts
            (xy 0.254 1.905)
            (xy 0.254 -1.905)
          )
          (stroke (width 0.254)) (fill (type none))
        )
        (polyline
          (pts
            (xy 0.762 -1.27)
            (xy 0.762 -2.286)
          )
          (stroke (width 0.254)) (fill (type none))
        )
        (polyline
          (pts
            (xy 0.762 0.508)
            (xy 0.762 -0.508)
          )
          (stroke (width 0.254)) (fill (type none))
        )
        (polyline
          (pts
            (xy 0.762 2.286)
            (xy 0.762 1.27)
          )
          (stroke (width 0.254)) (fill (type none))
        )
        (polyline
          (pts
            (xy 2.54 2.54)
            (xy 2.54 1.778)
          )
          (stroke (width 0)) (fill (type none))
        )
        (polyline
          (pts
            (xy 2.54 -2.54)
            (xy 2.54 0)
            (xy 0.762 0)
          )
          (stroke (width 0)) (fill (type none))
        )
        (polyline
          (pts
            (xy 0.762 1.778)
            (xy 3.302 1.778)
            (xy 3.302 -1.778)
            (xy 0.762 -1.778)
          )
          (stroke (width 0)) (fill (type none))
        )
        (polyline
          (pts
            (xy 2.286 0)
            (xy 1.27 0.381)
            (xy 1.27 -0.381)
            (xy 2.286 0)
          )
          (stroke (width 0)) (fill (type outline))
        )
        (polyline
          (pts
            (xy 2.794 -0.508)
            (xy 2.921 -0.381)
            (xy 3.683 -0.381)
            (xy 3.81 -0.254)
          )
          (stroke (width 0)) (fill (type none))
        )
        (polyline
          (pts
            (xy 3.302 -0.381)
            (xy 2.921 0.254)
            (xy 3.683 0.254)
            (xy 3.302 -0.381)
          )
          (stroke (width 0)) (fill (type none))
        )
      )
      (symbol "SI2301B_1_1"
        (pin input line (at -5.08 0 0) (length 2.54)
          (name "G" (effects (font (size 1.27 1.27))))
          (number "1" (effects (font (size 1.27 1.27))))
        )
        (pin passive line (at 2.54 -5.334 90) (length 2.54)
          (name "S" (effects (font (size 1.27 1.27))))
          (number "2" (effects (font (size 1.27 1.27))))
        )
      )
    )
    (symbol "Aethon:TP4054" (in_bom yes) (on_board yes)
      (property "Reference" "U" (id 0) (at 3.048 10.16 0)
        (effects (font (size 1.27 1.27)))
      )
      (property "Value" "TP4054" (id 1) (at 6.096 8.128 0)
        (effects (font (size 1.27 1.27)))
      )
      (property "Footprint" "Package_TO_SOT_SMD:TSOT-23-5" (id 2) (at 0 4.064 0)
        (effects (font (size 1.27 1.27)) hide)
      )
      (property "Datasheet" "https://datasheet.lcsc.com/szlcsc/2006181334_UMW-Youtai-Semiconductor-Co-Ltd-TP4054_C668215.pdf" (id 3) (at 0 4.064 0)
        (effects (font (size 1.27 1.27)) hide)
      )
      (property "ki_keywords" "Battery charger" (id 4) (at 0 0 0)
        (effects (font (size 1.27 1.27)) hide)
      )
      (property "ki_description" "Standalone Linear Li-lon Battery Charger with Thermal Regulation" (id 5) (at 0 0 0)
        (effects (font (size 1.27 1.27)) hide)
      )
      (symbol "TP4054_0_0"
        (pin input line (at -9.398 1.016 0) (length 2.54)
          (name "GHRG" (effects (font (size 1.27 1.27))))
          (number "1" (effects (font (size 1.27 1.27))))
        )
        (pin power_in line (at 0 -8.89 90) (length 2.54)
          (name "GND" (effects (font (size 1.27 1.27))))
          (number "2" (effects (font (size 1.27 1.27))))
        )
        (pin power_out line (at 9.906 1.016 180) (length 2.54)
          (name "BAT" (effects (font (size 1.27 1.27))))
          (number "3" (effects (font (size 1.27 1.27))))
        )
        (pin power_in line (at 0 9.398 270) (length 2.54)
          (name "VCC" (effects (font (size 1.27 1.27))))
          (number "4" (effects (font (size 1.27 1.27))))
        )
        (pin input line (at 9.906 -2.54 180) (length 2.54)
          (name "PROG" (effects (font (size 1.27 1.27))))
          (number "5" (effects (font (size 1.27 1.27))))
        )
      )
      (symbol "TP4054_0_1"
        (rectangle (start -6.858 6.858) (end 7.366 -6.35)
          (stroke (width 0.001)) (fill (type background))
        )
      )
    )
    (symbol "Connector:Conn_01x02_Female" (pin_names (offset 1.016) hide) (in_bom yes) (on_board yes)
      (property "Reference" "J" (id 0) (at 0 2.54 0)
        (effects (font (size 1.27 1.27)))
      )
      (property "Value" "Conn_01x02_Female" (id 1) (at 0 -5.08 0)
        (effects (font (size 1.27 1.27)))
      )
      (property "Footprint" "" (id 2) (at 0 0 0)
        (effects (font (size 1.27 1.27)) hide)
      )
      (property "Datasheet" "~" (id 3) (at 0 0 0)
        (effects (font (size 1.27 1.27)) hide)
      )
      (property "ki_keywords" "connector" (id 4) (at 0 0 0)
        (effects (font (size 1.27 1.27)) hide)
      )
      (property "ki_description" "Generic connector, single row, 01x02, script generated (kicad-library-utils/schlib/autogen/connector/)" (id 5) (at 0 0 0)
        (effects (font (size 1.27 1.27)) hide)
      )
      (property "ki_fp_filters" "Connector*:*_1x??_*" (id 6) (at 0 0 0)
        (effects (font (size 1.27 1.27)) hide)
      )
      (symbol "Conn_01x02_Female_1_1"
        (arc (start 0 -2.032) (end 0 -3.048) (radius (at 0 -2.54) (length 0.508) (angles 90.1 -90.1))
          (stroke (width 0.1524)) (fill (type none))
        )
        (arc (start 0 0.508) (end 0 -0.508) (radius (at 0 0) (length 0.508) (angles 90.1 -90.1))
          (stroke (width 0.1524)) (fill (type none))
        )
        (polyline
          (pts
            (xy -1.27 -2.54)
            (xy -0.508 -2.54)
          )
          (stroke (width 0.1524)) (fill (type none))
        )
        (polyline
          (pts
            (xy -1.27 0)
            (xy -0.508 0)
          )
          (stroke (width 0.1524)) (fill (type none))
        )
        (pin passive line (at -5.08 0 0) (length 3.81)
          (name "Pin_1" (effects (font (size 1.27 1.27))))
          (number "1" (effects (font (size 1.27 1.27))))
        )
        (pin passive line (at -5.08 -2.54 0) (length 3.81)
          (name "Pin_2" (effects (font (size 1.27 1.27))))
          (number "2" (effects (font (size 1.27 1.27))))
        )
      )
    )
    (symbol "Connector:Conn_01x02_Male" (pin_names (offset 1.016) hide) (in_bom yes) (on_board yes)
      (property "Reference" "J" (id 0) (at 0 2.54 0)
        (effects (font (size 1.27 1.27)))
      )
      (property "Value" "Conn_01x02_Male" (id 1) (at 0 -5.08 0)
        (effects (font (size 1.27 1.27)))
      )
      (property "Footprint" "" (id 2) (at 0 0 0)
        (effects (font (size 1.27 1.27)) hide)
      )
      (property "Datasheet" "~" (id 3) (at 0 0 0)
        (effects (font (size 1.27 1.27)) hide)
      )
      (property "ki_keywords" "connector" (id 4) (at 0 0 0)
        (effects (font (size 1.27 1.27)) hide)
      )
      (property "ki_description" "Generic connector, single row, 01x02, script generated (kicad-library-utils/schlib/autogen/connector/)" (id 5) (at 0 0 0)
        (effects (font (size 1.27 1.27)) hide)
      )
      (property "ki_fp_filters" "Connector*:*_1x??_*" (id 6) (at 0 0 0)
        (effects (font (size 1.27 1.27)) hide)
      )
      (symbol "Conn_01x02_Male_1_1"
        (rectangle (start 0.8636 -2.413) (end 0 -2.667)
          (stroke (width 0.1524)) (fill (type outline))
        )
        (rectangle (start 0.8636 0.127) (end 0 -0.127)
          (stroke (width 0.1524)) (fill (type outline))
        )
        (polyline
          (pts
            (xy 1.27 -2.54)
            (xy 0.8636 -2.54)
          )
          (stroke (width 0.1524)) (fill (type none))
        )
        (polyline
          (pts
            (xy 1.27 0)
            (xy 0.8636 0)
          )
          (stroke (width 0.1524)) (fill (type none))
        )
        (pin passive line (at 5.08 0 180) (length 3.81)
          (name "Pin_1" (effects (font (size 1.27 1.27))))
          (number "1" (effects (font (size 1.27 1.27))))
        )
        (pin passive line (at 5.08 -2.54 180) (length 3.81)
          (name "Pin_2" (effects (font (size 1.27 1.27))))
          (number "2" (effects (font (size 1.27 1.27))))
        )
      )
    )
    (symbol "Connector:TestPoint" (pin_numbers hide) (pin_names (offset 0.762) hide) (in_bom yes) (on_board yes)
      (property "Reference" "TP" (id 0) (at 0 6.858 0)
        (effects (font (size 1.27 1.27)))
      )
      (property "Value" "TestPoint" (id 1) (at 0 5.08 0)
        (effects (font (size 1.27 1.27)))
      )
      (property "Footprint" "" (id 2) (at 5.08 0 0)
        (effects (font (size 1.27 1.27)) hide)
      )
      (property "Datasheet" "~" (id 3) (at 5.08 0 0)
        (effects (font (size 1.27 1.27)) hide)
      )
      (property "ki_keywords" "test point tp" (id 4) (at 0 0 0)
        (effects (font (size 1.27 1.27)) hide)
      )
      (property "ki_description" "test point" (id 5) (at 0 0 0)
        (effects (font (size 1.27 1.27)) hide)
      )
      (property "ki_fp_filters" "Pin* Test*" (id 6) (at 0 0 0)
        (effects (font (size 1.27 1.27)) hide)
      )
      (symbol "TestPoint_0_1"
        (circle (center 0 3.302) (radius 0.762) (stroke (width 0)) (fill (type none)))
      )
      (symbol "TestPoint_1_1"
        (pin passive line (at 0 0 90) (length 2.54)
          (name "1" (effects (font (size 1.27 1.27))))
          (number "1" (effects (font (size 1.27 1.27))))
        )
      )
    )
    (symbol "Connector:USB_C_Receptacle_USB2.0" (pin_names (offset 1.016)) (in_bom yes) (on_board yes)
      (property "Reference" "J" (id 0) (at -10.16 19.05 0)
        (effects (font (size 1.27 1.27)) (justify left))
      )
      (property "Value" "USB_C_Receptacle_USB2.0" (id 1) (at 19.05 19.05 0)
        (effects (font (size 1.27 1.27)) (justify right))
      )
      (property "Footprint" "" (id 2) (at 3.81 0 0)
        (effects (font (size 1.27 1.27)) hide)
      )
      (property "Datasheet" "https://www.usb.org/sites/default/files/documents/usb_type-c.zip" (id 3) (at 3.81 0 0)
        (effects (font (size 1.27 1.27)) hide)
      )
      (property "ki_keywords" "usb universal serial bus type-C USB2.0" (id 4) (at 0 0 0)
        (effects (font (size 1.27 1.27)) hide)
      )
      (property "ki_description" "USB 2.0-only Type-C Receptacle connector" (id 5) (at 0 0 0)
        (effects (font (size 1.27 1.27)) hide)
      )
      (property "ki_fp_filters" "USB*C*Receptacle*" (id 6) (at 0 0 0)
        (effects (font (size 1.27 1.27)) hide)
      )
      (symbol "USB_C_Receptacle_USB2.0_0_0"
        (rectangle (start -0.254 -17.78) (end 0.254 -16.764)
          (stroke (width 0)) (fill (type none))
        )
        (rectangle (start 10.16 -14.986) (end 9.144 -15.494)
          (stroke (width 0)) (fill (type none))
        )
        (rectangle (start 10.16 -12.446) (end 9.144 -12.954)
          (stroke (width 0)) (fill (type none))
        )
        (rectangle (start 10.16 -4.826) (end 9.144 -5.334)
          (stroke (width 0)) (fill (type none))
        )
        (rectangle (start 10.16 -2.286) (end 9.144 -2.794)
          (stroke (width 0)) (fill (type none))
        )
        (rectangle (start 10.16 0.254) (end 9.144 -0.254)
          (stroke (width 0)) (fill (type none))
        )
        (rectangle (start 10.16 2.794) (end 9.144 2.286)
          (stroke (width 0)) (fill (type none))
        )
        (rectangle (start 10.16 7.874) (end 9.144 7.366)
          (stroke (width 0)) (fill (type none))
        )
        (rectangle (start 10.16 10.414) (end 9.144 9.906)
          (stroke (width 0)) (fill (type none))
        )
        (rectangle (start 10.16 15.494) (end 9.144 14.986)
          (stroke (width 0)) (fill (type none))
        )
      )
      (symbol "USB_C_Receptacle_USB2.0_0_1"
        (arc (start -8.89 -3.81) (end -5.08 -3.81) (radius (at -6.985 -3.81) (length 1.905) (angles -179.9 -0.1))
          (stroke (width 0.508)) (fill (type none))
        )
        (arc (start -7.62 -3.81) (end -6.35 -3.81) (radius (at -6.985 -3.81) (length 0.635) (angles -179.9 -0.1))
          (stroke (width 0.254)) (fill (type none))
        )
        (arc (start -7.62 -3.81) (end -6.35 -3.81) (radius (at -6.985 -3.81) (length 0.635) (angles -179.9 -0.1))
          (stroke (width 0.254)) (fill (type outline))
        )
        (arc (start -6.35 3.81) (end -7.62 3.81) (radius (at -6.985 3.81) (length 0.635) (angles 0.1 179.9))
          (stroke (width 0.254)) (fill (type outline))
        )
        (arc (start -6.35 3.81) (end -7.62 3.81) (radius (at -6.985 3.81) (length 0.635) (angles 0.1 179.9))
          (stroke (width 0.254)) (fill (type none))
        )
        (arc (start -5.08 3.81) (end -8.89 3.81) (radius (at -6.985 3.81) (length 1.905) (angles 0.1 179.9))
          (stroke (width 0.508)) (fill (type none))
        )
        (circle (center -2.54 1.143) (radius 0.635) (stroke (width 0.254)) (fill (type outline)))
        (circle (center 0 -5.842) (radius 1.27) (stroke (width 0)) (fill (type outline)))
        (rectangle (start -10.16 17.78) (end 10.16 -17.78)
          (stroke (width 0.254)) (fill (type background))
        )
        (rectangle (start -7.62 -3.81) (end -6.35 3.81)
          (stroke (width 0.254)) (fill (type outline))
        )
        (rectangle (start 1.905 1.778) (end 3.175 3.048)
          (stroke (width 0.254)) (fill (type outline))
        )
        (polyline
          (pts
            (xy -8.89 -3.81)
            (xy -8.89 3.81)
          )
          (stroke (width 0.508)) (fill (type none))
        )
        (polyline
          (pts
            (xy -5.08 3.81)
            (xy -5.08 -3.81)
          )
          (stroke (width 0.508)) (fill (type none))
        )
        (polyline
          (pts
            (xy 0 -5.842)
            (xy 0 4.318)
          )
          (stroke (width 0.508)) (fill (type none))
        )
        (polyline
          (pts
            (xy 0 -3.302)
            (xy -2.54 -0.762)
            (xy -2.54 0.508)
          )
          (stroke (width 0.508)) (fill (type none))
        )
        (polyline
          (pts
            (xy 0 -2.032)
            (xy 2.54 0.508)
            (xy 2.54 1.778)
          )
          (stroke (width 0.508)) (fill (type none))
        )
        (polyline
          (pts
            (xy -1.27 4.318)
            (xy 0 6.858)
            (xy 1.27 4.318)
            (xy -1.27 4.318)
          )
          (stroke (width 0.254)) (fill (type outline))
        )
      )
      (symbol "USB_C_Receptacle_USB2.0_1_1"
        (pin passive line (at 0 -22.86 90) (length 5.08)
          (name "GND" (effects (font (size 1.27 1.27))))
          (number "A1" (effects (font (size 1.27 1.27))))
        )
        (pin passive line (at 0 -22.86 90) (length 5.08) hide
          (name "GND" (effects (font (size 1.27 1.27))))
          (number "A12" (effects (font (size 1.27 1.27))))
        )
        (pin passive line (at 15.24 15.24 180) (length 5.08)
          (name "VBUS" (effects (font (size 1.27 1.27))))
          (number "A4" (effects (font (size 1.27 1.27))))
        )
        (pin bidirectional line (at 15.24 10.16 180) (length 5.08)
          (name "CC1" (effects (font (size 1.27 1.27))))
          (number "A5" (effects (font (size 1.27 1.27))))
        )
        (pin bidirectional line (at 15.24 -2.54 180) (length 5.08)
          (name "D+" (effects (font (size 1.27 1.27))))
          (number "A6" (effects (font (size 1.27 1.27))))
        )
        (pin bidirectional line (at 15.24 2.54 180) (length 5.08)
          (name "D-" (effects (font (size 1.27 1.27))))
          (number "A7" (effects (font (size 1.27 1.27))))
        )
        (pin bidirectional line (at 15.24 -12.7 180) (length 5.08)
          (name "SBU1" (effects (font (size 1.27 1.27))))
          (number "A8" (effects (font (size 1.27 1.27))))
        )
        (pin passive line (at 15.24 15.24 180) (length 5.08) hide
          (name "VBUS" (effects (font (size 1.27 1.27))))
          (number "A9" (effects (font (size 1.27 1.27))))
        )
        (pin passive line (at 0 -22.86 90) (length 5.08) hide
          (name "GND" (effects (font (size 1.27 1.27))))
          (number "B1" (effects (font (size 1.27 1.27))))
        )
        (pin passive line (at 0 -22.86 90) (length 5.08) hide
          (name "GND" (effects (font (size 1.27 1.27))))
          (number "B12" (effects (font (size 1.27 1.27))))
        )
        (pin passive line (at 15.24 15.24 180) (length 5.08) hide
          (name "VBUS" (effects (font (size 1.27 1.27))))
          (number "B4" (effects (font (size 1.27 1.27))))
        )
        (pin bidirectional line (at 15.24 7.62 180) (length 5.08)
          (name "CC2" (effects (font (size 1.27 1.27))))
          (number "B5" (effects (font (size 1.27 1.27))))
        )
        (pin bidirectional line (at 15.24 -5.08 180) (length 5.08)
          (name "D+" (effects (font (size 1.27 1.27))))
          (number "B6" (effects (font (size 1.27 1.27))))
        )
        (pin bidirectional line (at 15.24 0 180) (length 5.08)
          (name "D-" (effects (font (size 1.27 1.27))))
          (number "B7" (effects (font (size 1.27 1.27))))
        )
        (pin bidirectional line (at 15.24 -15.24 180) (length 5.08)
          (name "SBU2" (effects (font (size 1.27 1.27))))
          (number "B8" (effects (font (size 1.27 1.27))))
        )
        (pin passive line (at 15.24 15.24 180) (length 5.08) hide
          (name "VBUS" (effects (font (size 1.27 1.27))))
          (number "B9" (effects (font (size 1.27 1.27))))
        )
        (pin passive line (at -7.62 -22.86 90) (length 5.08)
          (name "SHIELD" (effects (font (size 1.27 1.27))))
          (number "S1" (effects (font (size 1.27 1.27))))
        )
      )
    )
    (symbol "Device:C" (pin_numbers hide) (pin_names (offset 0.254)) (in_bom yes) (on_board yes)
      (property "Reference" "C" (id 0) (at 0.635 2.54 0)
        (effects (font (size 1.27 1.27)) (justify left))
      )
      (property "Value" "C" (id 1) (at 0.635 -2.54 0)
        (effects (font (size 1.27 1.27)) (justify left))
      )
      (property "Footprint" "" (id 2) (at 0.9652 -3.81 0)
        (effects (font (size 1.27 1.27)) hide)
      )
      (property "Datasheet" "~" (id 3) (at 0 0 0)
        (effects (font (size 1.27 1.27)) hide)
      )
      (property "ki_keywords" "cap capacitor" (id 4) (at 0 0 0)
        (effects (font (size 1.27 1.27)) hide)
      )
      (property "ki_description" "Unpolarized capacitor" (id 5) (at 0 0 0)
        (effects (font (size 1.27 1.27)) hide)
      )
      (property "ki_fp_filters" "C_*" (id 6) (at 0 0 0)
        (effects (font (size 1.27 1.27)) hide)
      )
      (symbol "C_0_1"
        (polyline
          (pts
            (xy -2.032 -0.762)
            (xy 2.032 -0.762)
          )
          (stroke (width 0.508)) (fill (type none))
        )
        (polyline
          (pts
            (xy -2.032 0.762)
            (xy 2.032 0.762)
          )
          (stroke (width 0.508)) (fill (type none))
        )
      )
      (symbol "C_1_1"
        (pin passive line (at 0 3.81 270) (length 2.794)
          (name "~" (effects (font (size 1.27 1.27))))
          (number "1" (effects (font (size 1.27 1.27))))
        )
        (pin passive line (at 0 -3.81 90) (length 2.794)
          (name "~" (effects (font (size 1.27 1.27))))
          (number "2" (effects (font (size 1.27 1.27))))
        )
      )
    )
    (symbol "Device:LED" (pin_numbers hide) (pin_names (offset 1.016) hide) (in_bom yes) (on_board yes)
      (property "Reference" "D" (id 0) (at 0 2.54 0)
        (effects (font (size 1.27 1.27)))
      )
      (property "Value" "LED" (id 1) (at 0 -2.54 0)
        (effects (font (size 1.27 1.27)))
      )
      (property "Footprint" "" (id 2) (at 0 0 0)
        (effects (font (size 1.27 1.27)) hide)
      )
      (property "Datasheet" "~" (id 3) (at 0 0 0)
        (effects (font (size 1.27 1.27)) hide)
      )
      (property "ki_keywords" "LED diode" (id 4) (at 0 0 0)
        (effects (font (size 1.27 1.27)) hide)
      )
      (property "ki_description" "Light emitting diode" (id 5) (at 0 0 0)
        (effects (font (size 1.27 1.27)) hide)
      )
      (property "ki_fp_filters" "LED* LED_SMD:* LED_THT:*" (id 6) (at 0 0 0)
        (effects (font (size 1.27 1.27)) hide)
      )
      (symbol "LED_0_1"
        (polyline
          (pts
            (xy -1.27 -1.27)
            (xy -1.27 1.27)
          )
          (stroke (width 0.254)) (fill (type none))
        )
        (polyline
          (pts
            (xy -1.27 0)
            (xy 1.27 0)
          )
          (stroke (width 0)) (fill (type none))
        )
        (polyline
          (pts
            (xy 1.27 -1.27)
            (xy 1.27 1.27)
            (xy -1.27 0)
            (xy 1.27 -1.27)
          )
          (stroke (width 0.254)) (fill (type none))
        )
        (polyline
          (pts
            (xy -3.048 -0.762)
            (xy -4.572 -2.286)
            (xy -3.81 -2.286)
            (xy -4.572 -2.286)
            (xy -4.572 -1.524)
          )
          (stroke (width 0)) (fill (type none))
        )
        (polyline
          (pts
            (xy -1.778 -0.762)
            (xy -3.302 -2.286)
            (xy -2.54 -2.286)
            (xy -3.302 -2.286)
            (xy -3.302 -1.524)
          )
          (stroke (width 0)) (fill (type none))
        )
      )
      (symbol "LED_1_1"
        (pin passive line (at -3.81 0 0) (length 2.54)
          (name "K" (effects (font (size 1.27 1.27))))
          (number "1" (effects (font (size 1.27 1.27))))
        )
        (pin passive line (at 3.81 0 180) (length 2.54)
          (name "A" (effects (font (size 1.27 1.27))))
          (number "2" (effects (font (size 1.27 1.27))))
        )
      )
    )
    (symbol "Device:R" (pin_numbers hide) (pin_names (offset 0)) (in_bom yes) (on_board yes)
      (property "Reference" "R" (id 0) (at 2.032 0 90)
        (effects (font (size 1.27 1.27)))
      )
      (property "Value" "R" (id 1) (at 0 0 90)
        (effects (font (size 1.27 1.27)))
      )
      (property "Footprint" "" (id 2) (at -1.778 0 90)
        (effects (font (size 1.27 1.27)) hide)
      )
      (property "Datasheet" "~" (id 3) (at 0 0 0)
        (effects (font (size 1.27 1.27)) hide)
      )
      (property "ki_keywords" "R res resistor" (id 4) (at 0 0 0)
        (effects (font (size 1.27 1.27)) hide)
      )
      (property "ki_description" "Resistor" (id 5) (at 0 0 0)
        (effects (font (size 1.27 1.27)) hide)
      )
      (property "ki_fp_filters" "R_*" (id 6) (at 0 0 0)
        (effects (font (size 1.27 1.27)) hide)
      )
      (symbol "R_0_1"
        (rectangle (start -1.016 -2.54) (end 1.016 2.54)
          (stroke (width 0.254)) (fill (type none))
        )
      )
      (symbol "R_1_1"
        (pin passive line (at 0 3.81 270) (length 1.27)
          (name "~" (effects (font (size 1.27 1.27))))
          (number "1" (effects (font (size 1.27 1.27))))
        )
        (pin passive line (at 0 -3.81 90) (length 1.27)
          (name "~" (effects (font (size 1.27 1.27))))
          (number "2" (effects (font (size 1.27 1.27))))
        )
      )
    )
    (symbol "Device:Thermistor_PTC" (pin_numbers hide) (pin_names (offset 0)) (in_bom yes) (on_board yes)
      (property "Reference" "TH" (id 0) (at -4.064 0 90)
        (effects (font (size 1.27 1.27)))
      )
      (property "Value" "Thermistor_PTC" (id 1) (at 3.048 0 90)
        (effects (font (size 1.27 1.27)))
      )
      (property "Footprint" "" (id 2) (at 1.27 -5.08 0)
        (effects (font (size 1.27 1.27)) (justify left) hide)
      )
      (property "Datasheet" "~" (id 3) (at 0 0 0)
        (effects (font (size 1.27 1.27)) hide)
      )
      (property "ki_keywords" "resistor PTC thermistor sensor RTD" (id 4) (at 0 0 0)
        (effects (font (size 1.27 1.27)) hide)
      )
      (property "ki_description" "Temperature dependent resistor, positive temperature coefficient" (id 5) (at 0 0 0)
        (effects (font (size 1.27 1.27)) hide)
      )
      (property "ki_fp_filters" "*PTC* *Thermistor* PIN?ARRAY* bornier* *Terminal?Block* R_*" (id 6) (at 0 0 0)
        (effects (font (size 1.27 1.27)) hide)
      )
      (symbol "Thermistor_PTC_0_1"
        (arc (start -3.048 2.159) (end -3.175 2.413) (radius (at -3.2004 2.2352) (length 0.1778) (angles -26.5 81.8))
          (stroke (width 0)) (fill (type none))
        )
        (arc (start -3.048 2.159) (end -2.794 1.905) (radius (at -2.794 2.159) (length 0.254) (angles 180 -90))
          (stroke (width 0)) (fill (type none))
        )
        (arc (start -2.794 1.905) (end -2.54 2.159) (radius (at -2.794 2.159) (length 0.254) (angles -90 0))
          (stroke (width 0)) (fill (type none))
        )
        (arc (start -2.54 2.794) (end -2.794 3.048) (radius (at -2.794 2.794) (length 0.254) (angles 0 90))
          (stroke (width 0)) (fill (type none))
        )
        (arc (start -2.794 3.048) (end -3.048 2.794) (radius (at -2.794 2.794) (length 0.254) (angles 90 180))
          (stroke (width 0)) (fill (type none))
        )
        (arc (start -3.048 2.794) (end -2.794 2.54) (radius (at -2.794 2.794) (length 0.254) (angles 180 -90))
          (stroke (width 0)) (fill (type none))
        )
        (arc (start -2.794 2.54) (end -2.159 2.794) (radius (at -2.6416 3.0226) (length 0.508) (angles -107.5 -25.3))
          (stroke (width 0)) (fill (type none))
        )
        (rectangle (start -1.016 2.54) (end 1.016 -2.54)
          (stroke (width 0.254)) (fill (type none))
        )
        (polyline
          (pts
            (xy -2.54 2.159)
            (xy -2.54 2.794)
          )
          (stroke (width 0)) (fill (type none))
        )
        (polyline
          (pts
            (xy -1.778 2.54)
            (xy -1.778 1.524)
            (xy 1.778 -1.524)
            (xy 1.778 -2.54)
          )
          (stroke (width 0)) (fill (type none))
        )
        (polyline
          (pts
            (xy -2.54 -3.683)
            (xy -2.54 -1.397)
            (xy -2.794 -2.159)
            (xy -2.286 -2.159)
            (xy -2.54 -1.397)
            (xy -2.54 -1.651)
          )
          (stroke (width 0)) (fill (type outline))
        )
        (polyline
          (pts
            (xy -1.778 -3.683)
            (xy -1.778 -1.397)
            (xy -2.032 -2.159)
            (xy -1.524 -2.159)
            (xy -1.778 -1.397)
            (xy -1.778 -1.651)
          )
          (stroke (width 0)) (fill (type outline))
        )
      )
      (symbol "Thermistor_PTC_1_1"
        (pin passive line (at 0 3.81 270) (length 1.27)
          (name "~" (effects (font (size 1.27 1.27))))
          (number "1" (effects (font (size 1.27 1.27))))
        )
        (pin passive line (at 0 -3.81 90) (length 1.27)
          (name "~" (effects (font (size 1.27 1.27))))
          (number "2" (effects (font (size 1.27 1.27))))
        )
      )
    )
    (symbol "Diode:1N5819" (pin_numbers hide) (pin_names (offset 1.016) hide) (in_bom yes) (on_board yes)
      (property "Reference" "D" (id 0) (at 0 2.54 0)
        (effects (font (size 1.27 1.27)))
      )
      (property "Value" "1N5819" (id 1) (at 0 -2.54 0)
        (effects (font (size 1.27 1.27)))
      )
      (property "Footprint" "Diode_THT:D_DO-41_SOD81_P10.16mm_Horizontal" (id 2) (at 0 -4.445 0)
        (effects (font (size 1.27 1.27)) hide)
      )
      (property "Datasheet" "http://www.vishay.com/docs/88525/1n5817.pdf" (id 3) (at 0 0 0)
        (effects (font (size 1.27 1.27)) hide)
      )
      (property "ki_keywords" "diode Schottky" (id 4) (at 0 0 0)
        (effects (font (size 1.27 1.27)) hide)
      )
      (property "ki_description" "40V 1A Schottky Barrier Rectifier Diode, DO-41" (id 5) (at 0 0 0)
        (effects (font (size 1.27 1.27)) hide)
      )
      (property "ki_fp_filters" "D*DO?41*" (id 6) (at 0 0 0)
        (effects (font (size 1.27 1.27)) hide)
      )
      (symbol "1N5819_0_1"
        (polyline
          (pts
            (xy 1.27 0)
            (xy -1.27 0)
          )
          (stroke (width 0)) (fill (type none))
        )
        (polyline
          (pts
            (xy 1.27 1.27)
            (xy 1.27 -1.27)
            (xy -1.27 0)
            (xy 1.27 1.27)
          )
          (stroke (width 0.254)) (fill (type none))
        )
        (polyline
          (pts
            (xy -1.905 0.635)
            (xy -1.905 1.27)
            (xy -1.27 1.27)
            (xy -1.27 -1.27)
            (xy -0.635 -1.27)
            (xy -0.635 -0.635)
          )
          (stroke (width 0.254)) (fill (type none))
        )
      )
      (symbol "1N5819_1_1"
        (pin passive line (at -3.81 0 0) (length 2.54)
          (name "K" (effects (font (size 1.27 1.27))))
          (number "1" (effects (font (size 1.27 1.27))))
        )
        (pin passive line (at 3.81 0 180) (length 2.54)
          (name "A" (effects (font (size 1.27 1.27))))
          (number "2" (effects (font (size 1.27 1.27))))
        )
      )
    )
    (symbol "Regulator_Linear:AP2112K-3.3" (pin_names (offset 0.254)) (in_bom yes) (on_board yes)
      (property "Reference" "U" (id 0) (at -5.08 5.715 0)
        (effects (font (size 1.27 1.27)) (justify left))
      )
      (property "Value" "AP2112K-3.3" (id 1) (at 0 5.715 0)
        (effects (font (size 1.27 1.27)) (justify left))
      )
      (property "Footprint" "Package_TO_SOT_SMD:SOT-23-5" (id 2) (at 0 8.255 0)
        (effects (font (size 1.27 1.27)) hide)
      )
      (property "Datasheet" "https://www.diodes.com/assets/Datasheets/AP2112.pdf" (id 3) (at 0 2.54 0)
        (effects (font (size 1.27 1.27)) hide)
      )
      (property "ki_keywords" "linear regulator ldo fixed positive" (id 4) (at 0 0 0)
        (effects (font (size 1.27 1.27)) hide)
      )
      (property "ki_description" "600mA low dropout linear regulator, with enable pin, 3.8V-6V input voltage range, 3.3V fixed positive output, SOT-23-5" (id 5) (at 0 0 0)
        (effects (font (size 1.27 1.27)) hide)
      )
      (property "ki_fp_filters" "SOT?23?5*" (id 6) (at 0 0 0)
        (effects (font (size 1.27 1.27)) hide)
      )
      (symbol "AP2112K-3.3_0_1"
        (rectangle (start -5.08 4.445) (end 5.08 -5.08)
          (stroke (width 0.254)) (fill (type background))
        )
      )
      (symbol "AP2112K-3.3_1_1"
        (pin power_in line (at -7.62 2.54 0) (length 2.54)
          (name "VIN" (effects (font (size 1.27 1.27))))
          (number "1" (effects (font (size 1.27 1.27))))
        )
        (pin power_in line (at 0 -7.62 90) (length 2.54)
          (name "GND" (effects (font (size 1.27 1.27))))
          (number "2" (effects (font (size 1.27 1.27))))
        )
        (pin input line (at -7.62 0 0) (length 2.54)
          (name "EN" (effects (font (size 1.27 1.27))))
          (number "3" (effects (font (size 1.27 1.27))))
        )
        (pin no_connect line (at 5.08 0 180) (length 2.54) hide
          (name "NC" (effects (font (size 1.27 1.27))))
          (number "4" (effects (font (size 1.27 1.27))))
        )
        (pin power_out line (at 7.62 2.54 180) (length 2.54)
          (name "VOUT" (effects (font (size 1.27 1.27))))
          (number "5" (effects (font (size 1.27 1.27))))
        )
      )
    )
    (symbol "Regulator_Linear:XC6206PxxxMR" (pin_names (offset 0.254)) (in_bom yes) (on_board yes)
      (property "Reference" "U" (id 0) (at -3.81 3.175 0)
        (effects (font (size 1.27 1.27)))
      )
      (property "Value" "XC6206PxxxMR" (id 1) (at 0 3.175 0)
        (effects (font (size 1.27 1.27)) (justify left))
      )
      (property "Footprint" "Package_TO_SOT_SMD:SOT-23" (id 2) (at 0 5.715 0)
        (effects (font (size 1.27 1.27) italic) hide)
      )
      (property "Datasheet" "https://www.torexsemi.com/file/xc6206/XC6206.pdf" (id 3) (at 0 0 0)
        (effects (font (size 1.27 1.27)) hide)
      )
      (property "ki_keywords" "Torex LDO Voltage Regulator Fixed Positive" (id 4) (at 0 0 0)
        (effects (font (size 1.27 1.27)) hide)
      )
      (property "ki_description" "Positive 60-250mA Low Dropout Regulator, Fixed Output, SOT-23" (id 5) (at 0 0 0)
        (effects (font (size 1.27 1.27)) hide)
      )
      (property "ki_fp_filters" "SOT?23*" (id 6) (at 0 0 0)
        (effects (font (size 1.27 1.27)) hide)
      )
      (symbol "XC6206PxxxMR_0_1"
        (rectangle (start -5.08 1.905) (end 5.08 -5.08)
          (stroke (width 0.254)) (fill (type background))
        )
      )
      (symbol "XC6206PxxxMR_1_1"
        (pin power_in line (at 0 -7.62 90) (length 2.54)
          (name "GND" (effects (font (size 1.27 1.27))))
          (number "1" (effects (font (size 1.27 1.27))))
        )
        (pin power_out line (at 7.62 0 180) (length 2.54)
          (name "VO" (effects (font (size 1.27 1.27))))
          (number "2" (effects (font (size 1.27 1.27))))
        )
        (pin power_in line (at -7.62 0 0) (length 2.54)
          (name "VI" (effects (font (size 1.27 1.27))))
          (number "3" (effects (font (size 1.27 1.27))))
        )
      )
    )
    (symbol "power:GND" (power) (pin_names (offset 0)) (in_bom yes) (on_board yes)
      (property "Reference" "#PWR" (id 0) (at 0 -6.35 0)
        (effects (font (size 1.27 1.27)) hide)
      )
      (property "Value" "GND" (id 1) (at 0 -3.81 0)
        (effects (font (size 1.27 1.27)))
      )
      (property "Footprint" "" (id 2) (at 0 0 0)
        (effects (font (size 1.27 1.27)) hide)
      )
      (property "Datasheet" "" (id 3) (at 0 0 0)
        (effects (font (size 1.27 1.27)) hide)
      )
      (property "ki_keywords" "power-flag" (id 4) (at 0 0 0)
        (effects (font (size 1.27 1.27)) hide)
      )
      (property "ki_description" "Power symbol creates a global label with name \"GND\" , ground" (id 5) (at 0 0 0)
        (effects (font (size 1.27 1.27)) hide)
      )
      (symbol "GND_0_1"
        (polyline
          (pts
            (xy 0 0)
            (xy 0 -1.27)
            (xy 1.27 -1.27)
            (xy 0 -2.54)
            (xy -1.27 -1.27)
            (xy 0 -1.27)
          )
          (stroke (width 0)) (fill (type none))
        )
      )
      (symbol "GND_1_1"
        (pin power_in line (at 0 0 270) (length 0) hide
          (name "GND" (effects (font (size 1.27 1.27))))
          (number "1" (effects (font (size 1.27 1.27))))
        )
      )
    )
  )

  (junction (at 24.384 65.278) (diameter 1.016) (color 0 0 0 0))
  (junction (at 32.512 103.124) (diameter 1.016) (color 0 0 0 0))
  (junction (at 45.212 39.878) (diameter 1.016) (color 0 0 0 0))
  (junction (at 45.212 44.958) (diameter 1.016) (color 0 0 0 0))
  (junction (at 46.736 91.948) (diameter 1.016) (color 0 0 0 0))
  (junction (at 54.864 32.258) (diameter 1.016) (color 0 0 0 0))
  (junction (at 84.074 25.908) (diameter 1.016) (color 0 0 0 0))
  (junction (at 87.884 25.908) (diameter 1.016) (color 0 0 0 0))
  (junction (at 98.044 38.608) (diameter 1.016) (color 0 0 0 0))
  (junction (at 104.648 65.278) (diameter 1.016) (color 0 0 0 0))
  (junction (at 104.648 88.392) (diameter 1.016) (color 0 0 0 0))
  (junction (at 108.204 25.908) (diameter 1.016) (color 0 0 0 0))
  (junction (at 127.254 77.216) (diameter 1.016) (color 0 0 0 0))
  (junction (at 142.24 26.924) (diameter 1.016) (color 0 0 0 0))
  (junction (at 157.48 38.354) (diameter 1.016) (color 0 0 0 0))
  (junction (at 171.45 26.924) (diameter 1.016) (color 0 0 0 0))
  (junction (at 178.816 74.93) (diameter 1.016) (color 0 0 0 0))
  (junction (at 178.816 85.09) (diameter 1.016) (color 0 0 0 0))

  (wire (pts (xy 20.574 64.008) (xy 20.574 65.278))
    (stroke (width 0) (type solid) (color 0 0 0 0))
    (uuid bf2f9625-692c-4342-9b22-24a80b86d55d)
  )
  (wire (pts (xy 20.574 65.278) (xy 24.384 65.278))
    (stroke (width 0) (type solid) (color 0 0 0 0))
    (uuid bf2f9625-692c-4342-9b22-24a80b86d55d)
  )
  (wire (pts (xy 20.574 91.948) (xy 27.432 91.948))
    (stroke (width 0) (type solid) (color 0 0 0 0))
    (uuid 1dcff116-e9ba-4d94-9b67-45f7d61e6819)
  )
  (wire (pts (xy 21.082 103.124) (xy 32.512 103.124))
    (stroke (width 0) (type solid) (color 0 0 0 0))
    (uuid ebbac303-ca9e-4938-9fbd-f5cb152b56ab)
  )
  (wire (pts (xy 21.082 168.402) (xy 28.702 168.402))
    (stroke (width 0) (type solid) (color 0 0 0 0))
    (uuid 1d3e4c5c-11c1-476c-b136-0cbcd61f1b57)
  )
  (wire (pts (xy 21.082 173.482) (xy 28.702 173.482))
    (stroke (width 0) (type solid) (color 0 0 0 0))
    (uuid dcecd836-0815-4947-9f83-f4a3aaee8eb1)
  )
  (wire (pts (xy 21.082 178.562) (xy 28.702 178.562))
    (stroke (width 0) (type solid) (color 0 0 0 0))
    (uuid 20fd101d-b5c4-48d0-ba63-adc720abb39d)
  )
  (wire (pts (xy 21.082 183.896) (xy 28.702 183.896))
    (stroke (width 0) (type solid) (color 0 0 0 0))
    (uuid ad4d2c08-36f9-4018-92a1-a1d7922d6851)
  )
  (wire (pts (xy 24.384 65.278) (xy 28.194 65.278))
    (stroke (width 0) (type solid) (color 0 0 0 0))
    (uuid bf2f9625-692c-4342-9b22-24a80b86d55d)
  )
  (wire (pts (xy 26.924 116.586) (xy 32.258 116.586))
    (stroke (width 0) (type solid) (color 0 0 0 0))
    (uuid 16f0d3f4-5586-4a5c-88f7-135a4d97b350)
  )
  (wire (pts (xy 26.924 119.126) (xy 28.448 119.126))
    (stroke (width 0) (type solid) (color 0 0 0 0))
    (uuid a730bc5c-962d-4e97-be84-1dd7655189ca)
  )
  (wire (pts (xy 28.194 65.278) (xy 28.194 64.008))
    (stroke (width 0) (type solid) (color 0 0 0 0))
    (uuid bf2f9625-692c-4342-9b22-24a80b86d55d)
  )
  (wire (pts (xy 28.448 119.126) (xy 28.448 120.142))
    (stroke (width 0) (type solid) (color 0 0 0 0))
    (uuid a730bc5c-962d-4e97-be84-1dd7655189ca)
  )
  (wire (pts (xy 32.512 99.568) (xy 32.512 103.124))
    (stroke (width 0) (type solid) (color 0 0 0 0))
    (uuid e27258e1-931f-4d92-b7e4-91be57899acc)
  )
  (wire (pts (xy 32.512 103.124) (xy 37.084 103.124))
    (stroke (width 0) (type solid) (color 0 0 0 0))
    (uuid ebbac303-ca9e-4938-9fbd-f5cb152b56ab)
  )
  (wire (pts (xy 37.846 91.948) (xy 46.736 91.948))
    (stroke (width 0) (type solid) (color 0 0 0 0))
    (uuid 7654e2d9-b19d-4193-9f7e-043cc28f2a9d)
  )
  (wire (pts (xy 43.434 25.908) (xy 45.72 25.908))
    (stroke (width 0) (type solid) (color 0 0 0 0))
    (uuid c286e456-0e81-492d-95ca-41f30090b202)
  )
  (wire (pts (xy 43.434 30.988) (xy 45.212 30.988))
    (stroke (width 0) (type solid) (color 0 0 0 0))
    (uuid 58008915-b86e-4fd2-a0d4-a4d98b503f69)
  )
  (wire (pts (xy 43.434 33.528) (xy 45.212 33.528))
    (stroke (width 0) (type solid) (color 0 0 0 0))
    (uuid 3a32ea6b-f820-4efa-acf5-df430779f327)
  )
  (wire (pts (xy 43.434 43.688) (xy 45.212 43.688))
    (stroke (width 0) (type solid) (color 0 0 0 0))
    (uuid ae63e6a7-72a4-45f9-bede-9a03d2543706)
  )
  (wire (pts (xy 44.704 103.124) (xy 46.736 103.124))
    (stroke (width 0) (type solid) (color 0 0 0 0))
    (uuid 15352ca6-9060-4476-a3f6-ccf8ded24c89)
  )
  (wire (pts (xy 45.212 38.608) (xy 43.434 38.608))
    (stroke (width 0) (type solid) (color 0 0 0 0))
    (uuid 6f9d1be9-d646-4916-ae83-3df8a3cd5567)
  )
  (wire (pts (xy 45.212 38.608) (xy 45.212 39.878))
    (stroke (width 0) (type solid) (color 0 0 0 0))
    (uuid 805e341e-7cca-4ad4-b0aa-dbefb2aad6e3)
  )
  (wire (pts (xy 45.212 39.878) (xy 45.212 41.148))
    (stroke (width 0) (type solid) (color 0 0 0 0))
    (uuid 805e341e-7cca-4ad4-b0aa-dbefb2aad6e3)
  )
  (wire (pts (xy 45.212 39.878) (xy 50.292 39.878))
    (stroke (width 0) (type solid) (color 0 0 0 0))
    (uuid 74d6850e-df4d-4e05-908b-720538ed4d4c)
  )
  (wire (pts (xy 45.212 41.148) (xy 43.434 41.148))
    (stroke (width 0) (type solid) (color 0 0 0 0))
    (uuid ad88aefd-c894-40d9-a0aa-d8b3465bc592)
  )
  (wire (pts (xy 45.212 43.688) (xy 45.212 44.958))
    (stroke (width 0) (type solid) (color 0 0 0 0))
    (uuid ae63e6a7-72a4-45f9-bede-9a03d2543706)
  )
  (wire (pts (xy 45.212 44.958) (xy 45.212 46.228))
    (stroke (width 0) (type solid) (color 0 0 0 0))
    (uuid ae63e6a7-72a4-45f9-bede-9a03d2543706)
  )
  (wire (pts (xy 45.212 44.958) (xy 50.292 44.958))
    (stroke (width 0) (type solid) (color 0 0 0 0))
    (uuid d51dc8d7-5bf7-4269-bc97-1ed2b98feef2)
  )
  (wire (pts (xy 45.212 46.228) (xy 43.434 46.228))
    (stroke (width 0) (type solid) (color 0 0 0 0))
    (uuid ae63e6a7-72a4-45f9-bede-9a03d2543706)
  )
  (wire (pts (xy 46.736 91.948) (xy 53.34 91.948))
    (stroke (width 0) (type solid) (color 0 0 0 0))
    (uuid 718db123-a6d5-4451-b08e-cb948e81e380)
  )
  (wire (pts (xy 46.736 103.124) (xy 46.736 91.948))
    (stroke (width 0) (type solid) (color 0 0 0 0))
    (uuid 15352ca6-9060-4476-a3f6-ccf8ded24c89)
  )
  (wire (pts (xy 52.832 30.988) (xy 54.864 30.988))
    (stroke (width 0) (type solid) (color 0 0 0 0))
    (uuid 7228a538-e2ef-4f6a-86c7-32c7d954a298)
  )
  (wire (pts (xy 52.832 33.528) (xy 54.864 33.528))
    (stroke (width 0) (type solid) (color 0 0 0 0))
    (uuid 7228a538-e2ef-4f6a-86c7-32c7d954a298)
  )
  (wire (pts (xy 53.34 25.908) (xy 58.674 25.908))
    (stroke (width 0) (type solid) (color 0 0 0 0))
    (uuid c40c0984-7ebb-4ad9-aa96-807e4f34eee4)
  )
  (wire (pts (xy 54.864 30.988) (xy 54.864 32.258))
    (stroke (width 0) (type solid) (color 0 0 0 0))
    (uuid 7228a538-e2ef-4f6a-86c7-32c7d954a298)
  )
  (wire (pts (xy 54.864 32.258) (xy 54.864 33.528))
    (stroke (width 0) (type solid) (color 0 0 0 0))
    (uuid 7228a538-e2ef-4f6a-86c7-32c7d954a298)
  )
  (wire (pts (xy 54.864 32.258) (xy 56.896 32.258))
    (stroke (width 0) (type solid) (color 0 0 0 0))
    (uuid 5c1b8854-4257-40a9-86d6-b18b0abe65ee)
  )
  (wire (pts (xy 56.896 32.258) (xy 56.896 32.512))
    (stroke (width 0) (type solid) (color 0 0 0 0))
    (uuid 5c1b8854-4257-40a9-86d6-b18b0abe65ee)
  )
  (wire (pts (xy 78.994 25.908) (xy 84.074 25.908))
    (stroke (width 0) (type solid) (color 0 0 0 0))
    (uuid 62561e45-deef-4653-b168-cdf8d2a7b67f)
  )
  (wire (pts (xy 84.074 25.908) (xy 84.074 28.448))
    (stroke (width 0) (type solid) (color 0 0 0 0))
    (uuid d722ae66-b8ea-46b9-b765-df640ba657f4)
  )
  (wire (pts (xy 84.074 25.908) (xy 87.884 25.908))
    (stroke (width 0) (type solid) (color 0 0 0 0))
    (uuid 62561e45-deef-4653-b168-cdf8d2a7b67f)
  )
  (wire (pts (xy 84.074 36.068) (xy 84.074 38.608))
    (stroke (width 0) (type solid) (color 0 0 0 0))
    (uuid 23f42bb6-df9f-4f65-b054-6993b23909d7)
  )
  (wire (pts (xy 84.074 38.608) (xy 98.044 38.608))
    (stroke (width 0) (type solid) (color 0 0 0 0))
    (uuid f664f25b-7040-42be-abb9-d67e29814ae4)
  )
  (wire (pts (xy 87.884 25.908) (xy 90.424 25.908))
    (stroke (width 0) (type solid) (color 0 0 0 0))
    (uuid e5997b99-0947-4834-b41a-5906d53f68c2)
  )
  (wire (pts (xy 87.884 28.448) (xy 87.884 25.908))
    (stroke (width 0) (type solid) (color 0 0 0 0))
    (uuid 4003a933-6297-4dfd-8db2-c10106a08136)
  )
  (wire (pts (xy 88.392 65.278) (xy 88.392 68.072))
    (stroke (width 0) (type solid) (color 0 0 0 0))
    (uuid 4a284bed-f150-4653-b842-63ae7d6d3058)
  )
  (wire (pts (xy 88.392 65.278) (xy 95.504 65.278))
    (stroke (width 0) (type solid) (color 0 0 0 0))
    (uuid 14f3cde3-7810-4d06-8d0c-2c8bf997df69)
  )
  (wire (pts (xy 88.392 77.216) (xy 88.392 75.692))
    (stroke (width 0) (type solid) (color 0 0 0 0))
    (uuid adc9f00a-04b8-48fa-ba74-8e8eea65ad3c)
  )
  (wire (pts (xy 90.424 28.448) (xy 87.884 28.448))
    (stroke (width 0) (type solid) (color 0 0 0 0))
    (uuid 4003a933-6297-4dfd-8db2-c10106a08136)
  )
  (wire (pts (xy 92.964 81.534) (xy 92.964 84.836))
    (stroke (width 0) (type solid) (color 0 0 0 0))
    (uuid d2cdaeee-098f-4605-aea4-049235f7d05f)
  )
  (wire (pts (xy 92.964 92.456) (xy 92.964 94.488))
    (stroke (width 0) (type solid) (color 0 0 0 0))
    (uuid 288a3e7f-c1f9-4813-adb7-ba636e38dbc0)
  )
  (wire (pts (xy 95.25 77.216) (xy 88.392 77.216))
    (stroke (width 0) (type solid) (color 0 0 0 0))
    (uuid adc9f00a-04b8-48fa-ba74-8e8eea65ad3c)
  )
  (wire (pts (xy 98.044 36.068) (xy 98.044 38.608))
    (stroke (width 0) (type solid) (color 0 0 0 0))
    (uuid 52113935-7ef4-4452-8029-f1153a64d9b3)
  )
  (wire (pts (xy 98.044 38.608) (xy 98.044 41.148))
    (stroke (width 0) (type solid) (color 0 0 0 0))
    (uuid 9879baf8-d6dd-4ba4-ad98-be28daa7b467)
  )
  (wire (pts (xy 98.044 38.608) (xy 108.204 38.608))
    (stroke (width 0) (type solid) (color 0 0 0 0))
    (uuid d6de7732-f9d5-4ca6-8582-03342f786fdb)
  )
  (wire (pts (xy 103.124 65.278) (xy 104.648 65.278))
    (stroke (width 0) (type solid) (color 0 0 0 0))
    (uuid e303013b-1fc4-420d-9151-b91784edc95b)
  )
  (wire (pts (xy 104.648 63.754) (xy 104.648 65.278))
    (stroke (width 0) (type solid) (color 0 0 0 0))
    (uuid ebd3fca5-b776-4664-964a-92c353bb17a3)
  )
  (wire (pts (xy 104.648 65.278) (xy 104.648 68.834))
    (stroke (width 0) (type solid) (color 0 0 0 0))
    (uuid ebd3fca5-b776-4664-964a-92c353bb17a3)
  )
  (wire (pts (xy 104.648 87.122) (xy 104.648 88.392))
    (stroke (width 0) (type solid) (color 0 0 0 0))
    (uuid 423c90fb-083e-4503-8e39-a967937fa298)
  )
  (wire (pts (xy 104.648 88.392) (xy 104.648 89.154))
    (stroke (width 0) (type solid) (color 0 0 0 0))
    (uuid 423c90fb-083e-4503-8e39-a967937fa298)
  )
  (wire (pts (xy 104.648 88.392) (xy 117.094 88.392))
    (stroke (width 0) (type solid) (color 0 0 0 0))
    (uuid e0a40881-8307-4c25-bbb7-764c39e08aeb)
  )
  (wire (pts (xy 105.664 25.908) (xy 108.204 25.908))
    (stroke (width 0) (type solid) (color 0 0 0 0))
    (uuid 001a8bfa-a275-4393-9f35-0cb21b96d500)
  )
  (wire (pts (xy 108.204 25.908) (xy 118.364 25.908))
    (stroke (width 0) (type solid) (color 0 0 0 0))
    (uuid 0796afdf-6961-46df-ac8a-851c8615dc10)
  )
  (wire (pts (xy 108.204 28.448) (xy 108.204 25.908))
    (stroke (width 0) (type solid) (color 0 0 0 0))
    (uuid e1273729-7a9e-47ff-981c-15711efaf8e3)
  )
  (wire (pts (xy 108.204 38.608) (xy 108.204 36.068))
    (stroke (width 0) (type solid) (color 0 0 0 0))
    (uuid d6de7732-f9d5-4ca6-8582-03342f786fdb)
  )
  (wire (pts (xy 114.554 77.216) (xy 127.254 77.216))
    (stroke (width 0) (type solid) (color 0 0 0 0))
    (uuid 7ad4b503-575e-4f7f-8c45-17de197db070)
  )
  (wire (pts (xy 114.554 80.772) (xy 117.094 80.772))
    (stroke (width 0) (type solid) (color 0 0 0 0))
    (uuid cec6bf94-c8fa-410d-b6eb-2214e3509ef1)
  )
  (wire (pts (xy 127.254 77.216) (xy 142.24 77.216))
    (stroke (width 0) (type solid) (color 0 0 0 0))
    (uuid 00095df2-9e88-48f9-a2f7-a07fbb2fd162)
  )
  (wire (pts (xy 127.254 79.756) (xy 127.254 77.216))
    (stroke (width 0) (type solid) (color 0 0 0 0))
    (uuid 4a755e3d-4bba-44d0-82f4-bb7cf7c65b78)
  )
  (wire (pts (xy 127.254 87.376) (xy 127.254 89.662))
    (stroke (width 0) (type solid) (color 0 0 0 0))
    (uuid a985ee05-365e-436d-ac31-8f42400dbfb8)
  )
  (wire (pts (xy 138.43 26.924) (xy 142.24 26.924))
    (stroke (width 0) (type solid) (color 0 0 0 0))
    (uuid 6c77e00b-7cff-47de-9e4f-77f86f5f6ae8)
  )
  (wire (pts (xy 142.24 26.924) (xy 149.86 26.924))
    (stroke (width 0) (type solid) (color 0 0 0 0))
    (uuid a7ac5ec7-c74b-4f28-a8a6-bb6f8961017c)
  )
  (wire (pts (xy 142.24 28.194) (xy 142.24 26.924))
    (stroke (width 0) (type solid) (color 0 0 0 0))
    (uuid 25cf8c32-cdba-4257-a2ac-9176c9987cc2)
  )
  (wire (pts (xy 142.24 35.814) (xy 142.24 38.354))
    (stroke (width 0) (type solid) (color 0 0 0 0))
    (uuid c58cbddd-b284-4104-8845-b90d0c2afa7c)
  )
  (wire (pts (xy 142.24 38.354) (xy 157.48 38.354))
    (stroke (width 0) (type solid) (color 0 0 0 0))
    (uuid f3d9f7bb-1786-4313-82b0-ae7eede51857)
  )
  (wire (pts (xy 142.24 79.756) (xy 142.24 82.804))
    (stroke (width 0) (type solid) (color 0 0 0 0))
    (uuid 28589078-93e4-4ba2-bbb9-e24072995d94)
  )
  (wire (pts (xy 157.48 34.544) (xy 157.48 38.354))
    (stroke (width 0) (type solid) (color 0 0 0 0))
    (uuid b80200b9-52c5-438d-be9b-eddab77e8a6d)
  )
  (wire (pts (xy 157.48 38.354) (xy 157.48 40.894))
    (stroke (width 0) (type solid) (color 0 0 0 0))
    (uuid 1a213a4e-b48e-4c02-bc73-3439564adbcf)
  )
  (wire (pts (xy 157.48 38.354) (xy 171.45 38.354))
    (stroke (width 0) (type solid) (color 0 0 0 0))
    (uuid 3123de53-f424-42fb-b345-300833d54d7f)
  )
  (wire (pts (xy 165.1 26.924) (xy 171.45 26.924))
    (stroke (width 0) (type solid) (color 0 0 0 0))
    (uuid 7138234d-0fac-4572-a1fd-c5b23aea217d)
  )
  (wire (pts (xy 171.45 26.924) (xy 180.34 26.924))
    (stroke (width 0) (type solid) (color 0 0 0 0))
    (uuid d840f864-b297-47bc-8de9-0a506b8de85f)
  )
  (wire (pts (xy 171.45 28.194) (xy 171.45 26.924))
    (stroke (width 0) (type solid) (color 0 0 0 0))
    (uuid f2f40b67-1b67-4f80-93ae-c3acdc309fb3)
  )
  (wire (pts (xy 171.45 38.354) (xy 171.45 35.814))
    (stroke (width 0) (type solid) (color 0 0 0 0))
    (uuid ef98c5d2-dbba-4159-ba3f-7a1750c47310)
  )
  (wire (pts (xy 173.482 74.93) (xy 178.816 74.93))
    (stroke (width 0) (type solid) (color 0 0 0 0))
    (uuid fc1831d6-b5f7-452d-9eb1-463fd49e285b)
  )
  (wire (pts (xy 173.482 76.2) (xy 173.482 74.93))
    (stroke (width 0) (type solid) (color 0 0 0 0))
    (uuid fc1831d6-b5f7-452d-9eb1-463fd49e285b)
  )
  (wire (pts (xy 173.482 83.82) (xy 173.482 85.09))
    (stroke (width 0) (type solid) (color 0 0 0 0))
    (uuid dd3e5948-7c23-4e49-97b2-4c3aec1bfc03)
  )
  (wire (pts (xy 173.482 85.09) (xy 178.816 85.09))
    (stroke (width 0) (type solid) (color 0 0 0 0))
    (uuid dd3e5948-7c23-4e49-97b2-4c3aec1bfc03)
  )
  (wire (pts (xy 178.816 64.262) (xy 178.816 66.548))
    (stroke (width 0) (type solid) (color 0 0 0 0))
    (uuid 203e5b80-8a94-4387-87d4-928c6feae5f6)
  )
  (wire (pts (xy 178.816 74.93) (xy 178.816 74.168))
    (stroke (width 0) (type solid) (color 0 0 0 0))
    (uuid fc1831d6-b5f7-452d-9eb1-463fd49e285b)
  )
  (wire (pts (xy 178.816 74.93) (xy 189.738 74.93))
    (stroke (width 0) (type solid) (color 0 0 0 0))
    (uuid cf825484-2769-4f85-ab16-f08e333eb802)
  )
  (wire (pts (xy 178.816 75.946) (xy 178.816 74.93))
    (stroke (width 0) (type solid) (color 0 0 0 0))
    (uuid 29c622fc-a0ef-4428-ae58-23027b4b9c35)
  )
  (wire (pts (xy 178.816 85.09) (xy 178.816 83.566))
    (stroke (width 0) (type solid) (color 0 0 0 0))
    (uuid dd3e5948-7c23-4e49-97b2-4c3aec1bfc03)
  )
  (wire (pts (xy 178.816 87.122) (xy 178.816 85.09))
    (stroke (width 0) (type solid) (color 0 0 0 0))
    (uuid 93829f4a-7e0c-4e97-972a-8f0f45e9b473)
  )
  (wire (pts (xy 197.358 74.93) (xy 203.2 74.93))
    (stroke (width 0) (type solid) (color 0 0 0 0))
    (uuid ceb4c45e-91be-4be4-83b8-d152ba61e346)
  )
  (polyline (pts (xy 12.954 12.7) (xy 12.954 138.43))
    (stroke (width 0) (type dash) (color 0 0 0 0))
    (uuid 629c0b22-f13e-48d0-90c3-8a1c6ccea24c)
  )
  (polyline (pts (xy 12.954 138.43) (xy 71.12 138.43))
    (stroke (width 0) (type dash) (color 0 0 0 0))
    (uuid 629c0b22-f13e-48d0-90c3-8a1c6ccea24c)
  )
  (polyline (pts (xy 71.12 12.7) (xy 12.954 12.7))
    (stroke (width 0) (type dash) (color 0 0 0 0))
    (uuid 629c0b22-f13e-48d0-90c3-8a1c6ccea24c)
  )
  (polyline (pts (xy 71.12 138.43) (xy 71.12 12.7))
    (stroke (width 0) (type dash) (color 0 0 0 0))
    (uuid 629c0b22-f13e-48d0-90c3-8a1c6ccea24c)
  )
  (polyline (pts (xy 75.438 12.7) (xy 75.438 49.53))
    (stroke (width 0) (type dash) (color 0 0 0 0))
    (uuid ffaf2a0a-25b1-41cc-a34e-af81e161de7f)
  )
  (polyline (pts (xy 75.438 12.7) (xy 194.564 12.7))
    (stroke (width 0) (type dash) (color 0 0 0 0))
    (uuid ffaf2a0a-25b1-41cc-a34e-af81e161de7f)
  )
  (polyline (pts (xy 75.438 51.562) (xy 75.438 101.346))
    (stroke (width 0) (type dash) (color 0 0 0 0))
    (uuid 23268801-26a8-464b-9b87-5b0e490286f2)
  )
  (polyline (pts (xy 75.438 51.562) (xy 159.004 51.562))
    (stroke (width 0) (type dash) (color 0 0 0 0))
    (uuid 23268801-26a8-464b-9b87-5b0e490286f2)
  )
  (polyline (pts (xy 159.004 51.562) (xy 159.004 101.346))
    (stroke (width 0) (type dash) (color 0 0 0 0))
    (uuid 23268801-26a8-464b-9b87-5b0e490286f2)
  )
  (polyline (pts (xy 159.004 101.346) (xy 75.438 101.346))
    (stroke (width 0) (type dash) (color 0 0 0 0))
    (uuid 23268801-26a8-464b-9b87-5b0e490286f2)
  )
  (polyline (pts (xy 162.052 51.562) (xy 162.052 101.346))
    (stroke (width 0) (type dash) (color 0 0 0 0))
    (uuid a4a9a2f8-3607-48e6-aece-c61f69194f68)
  )
  (polyline (pts (xy 162.052 51.562) (xy 220.726 51.562))
    (stroke (width 0) (type dash) (color 0 0 0 0))
    (uuid a4a9a2f8-3607-48e6-aece-c61f69194f68)
  )
  (polyline (pts (xy 194.564 12.7) (xy 194.564 49.53))
    (stroke (width 0) (type dash) (color 0 0 0 0))
    (uuid ffaf2a0a-25b1-41cc-a34e-af81e161de7f)
  )
  (polyline (pts (xy 194.564 49.53) (xy 75.438 49.53))
    (stroke (width 0) (type dash) (color 0 0 0 0))
    (uuid ffaf2a0a-25b1-41cc-a34e-af81e161de7f)
  )
  (polyline (pts (xy 220.726 51.562) (xy 220.726 101.346))
    (stroke (width 0) (type dash) (color 0 0 0 0))
    (uuid a4a9a2f8-3607-48e6-aece-c61f69194f68)
  )
  (polyline (pts (xy 220.726 101.346) (xy 162.052 101.346))
    (stroke (width 0) (type dash) (color 0 0 0 0))
    (uuid a4a9a2f8-3607-48e6-aece-c61f69194f68)
  )

  (text "Test points" (at 24.638 165.1 180)
    (effects (font (size 1.27 1.27)) (justify right bottom))
    (uuid 037fe70a-b58e-41e4-a4bf-7018d234ed59)
  )
  (text "USB Type-C conn" (at 40.64 16.51 180)
    (effects (font (size 1.27 1.27)) (justify right bottom))
    (uuid 1195efe4-e288-4d4b-9bcc-d278b520d1f6)
  )
  (text "Source selection (BAT/USB)" (at 45.212 81.28 180)
    (effects (font (size 1.27 1.27)) (justify right bottom))
    (uuid 516d1009-c428-4335-a8d5-399f19fb8b69)
  )
  (text "0603 package\n" (at 90.678 93.726 180)
    (effects (font (size 1.27 1.27)) (justify right bottom))
    (uuid 16e2d202-8221-4c84-b1e3-3217ce797c85)
  )
  (text "Battery Charger" (at 96.774 56.642 0)
    (effects (font (size 1.27 1.27)) (justify left bottom))
    (uuid f8e5328c-45a9-4a71-b5ce-38fbe53d373b)
  )
  (text "ESP32 Voltage Regulator" (at 110.744 17.018 180)
    (effects (font (size 1.27 1.27)) (justify right bottom))
    (uuid c2d2c463-bf90-4464-90de-508fc09cb01f)
  )
  (text "For I_{bat} <= 0.15A:\nR_{prog} = 1000/I_{bat} x (1.2 - 4/3 x I_{bat})\nR_{prog} = 2k -> 500mA"
    (at 114.3 69.088 0)
    (effects (font (size 1.27 1.27)) (justify left bottom))
    (uuid 743513c3-3432-4c3c-9fae-16bb2ae2cb1d)
  )
  (text "0603" (at 134.62 88.646 180)
    (effects (font (size 1.27 1.27)) (justify right bottom))
    (uuid 0c68bbf0-d743-4610-ae49-0e1af8d93b62)
  )
  (text "Sensor Voltage Regulator" (at 146.05 18.034 0)
    (effects (font (size 1.27 1.27)) (justify left bottom))
    (uuid 85801ffa-5ea9-4d75-96ac-21791651a95d)
  )
  (text "Battery\nMeasurement" (at 169.672 59.436 0)
    (effects (font (size 1.27 1.27)) (justify left bottom))
    (uuid bffbc165-bb9f-4e31-b2cb-74c6eeee5fe6)
  )

  (label "VBAT" (at 20.574 91.948 0)
    (effects (font (size 1.27 1.27)) (justify left bottom))
    (uuid 9f429a48-385f-4f8b-ab2a-7db195b0a87e)
  )
  (label "VBUS" (at 21.082 103.124 0)
    (effects (font (size 1.27 1.27)) (justify left bottom))
    (uuid faf6a7e0-4586-40b7-b760-6c2f59207409)
  )
  (label "VBUS" (at 21.082 168.402 0)
    (effects (font (size 1.27 1.27)) (justify left bottom))
    (uuid be7e9c66-afcc-4011-98e7-3c8c9c360554)
  )
  (label "VCC" (at 21.082 173.482 0)
    (effects (font (size 1.27 1.27)) (justify left bottom))
    (uuid 970a81bb-306d-4585-bfc2-4eebbf83f297)
  )
  (label "+3V3" (at 21.082 178.562 0)
    (effects (font (size 1.27 1.27)) (justify left bottom))
    (uuid 718d76d2-265e-4065-a82b-8ca27f82358c)
  )
  (label "+3V3_LN" (at 21.082 183.896 0)
    (effects (font (size 1.27 1.27)) (justify left bottom))
    (uuid f3132d87-d08e-42f9-afe1-fb51947689d7)
  )
  (label "VBUS" (at 32.258 116.586 180)
    (effects (font (size 1.27 1.27)) (justify right bottom))
    (uuid c8945ca9-b3ea-47eb-ab32-d16ccf368e1e)
  )
  (label "VCC" (at 53.34 91.948 0)
    (effects (font (size 1.27 1.27)) (justify left bottom))
    (uuid c7c56654-9ea0-46a5-847b-ba06b261d6bb)
  )
  (label "VBUS" (at 58.674 25.908 180)
    (effects (font (size 1.27 1.27)) (justify right bottom))
    (uuid 70105c3b-a952-410b-981c-4745bf4bd115)
  )
  (label "VCC" (at 78.994 25.908 0)
    (effects (font (size 1.27 1.27)) (justify left bottom))
    (uuid 0d730ced-680f-4a6e-a135-cd4db078d193)
  )
  (label "VBUS" (at 92.964 81.534 180)
    (effects (font (size 1.27 1.27)) (justify right bottom))
    (uuid 81b62413-1490-4c37-8234-46d3c2f11c4d)
  )
  (label "VBUS" (at 104.648 63.754 0)
    (effects (font (size 1.27 1.27)) (justify left bottom))
    (uuid 860625d4-5b3b-49a3-bfd6-746a03c6da44)
  )
  (label "+3V3" (at 111.76 25.908 0)
    (effects (font (size 1.27 1.27)) (justify left bottom))
    (uuid c7d0611c-2ae3-47f0-9ce9-076b17f989af)
  )
  (label "VBAT" (at 137.414 77.216 180)
    (effects (font (size 1.27 1.27)) (justify right bottom))
    (uuid 6107097f-29a0-48af-8f36-b428290db65b)
  )
  (label "VCC" (at 138.43 26.924 180)
    (effects (font (size 1.27 1.27)) (justify right bottom))
    (uuid 4e123756-8e3e-4093-bbc2-e0651e3b8cad)
  )
  (label "VBAT" (at 178.816 64.262 180)
    (effects (font (size 1.27 1.27)) (justify right bottom))
    (uuid 871ad186-f841-4c6e-b8e3-6a8359c1087a)
  )

  (hierarchical_label "D-" (shape input) (at 50.292 39.878 0)
    (effects (font (size 1.27 1.27)) (justify left))
    (uuid ae8fddef-3aa4-46ca-b169-b50e74fb6fb2)
  )
  (hierarchical_label "D+" (shape input) (at 50.292 44.958 0)
    (effects (font (size 1.27 1.27)) (justify left))
    (uuid fb8832c8-9a9e-4f2e-8853-4795e548d023)
  )
  (hierarchical_label "+3V3" (shape output) (at 118.364 25.908 0)
    (effects (font (size 1.27 1.27)) (justify left))
    (uuid e279c76a-d30d-485a-9922-f8532f1f9bef)
  )
  (hierarchical_label "+3V3_LN" (shape output) (at 180.34 26.924 0)
    (effects (font (size 1.27 1.27)) (justify left))
    (uuid 7577c96b-ab02-4bd7-b1ee-a50544cd4900)
  )
  (hierarchical_label "SENS_VP" (shape output) (at 203.2 74.93 0)
    (effects (font (size 1.27 1.27)) (justify left))
    (uuid b8dccdc8-813e-4662-b8b7-398f92c52318)
  )

  (symbol (lib_id "Connector:TestPoint") (at 28.702 168.402 270) (unit 1)
    (in_bom yes) (on_board yes)
    (uuid c679233b-c541-4352-aa53-97cf6b891efc)
    (property "Reference" "TP3" (id 0) (at 33.4011 167.2526 90)
      (effects (font (size 1.27 1.27)) (justify left))
    )
    (property "Value" "VBUS" (id 1) (at 33.401 169.551 90)
      (effects (font (size 1.27 1.27)) (justify left))
    )
    (property "Footprint" "TestPoint:TestPoint_Pad_D1.0mm" (id 2) (at 28.702 173.482 0)
      (effects (font (size 1.27 1.27)) hide)
    )
    (property "Datasheet" "~" (id 3) (at 28.702 173.482 0)
      (effects (font (size 1.27 1.27)) hide)
    )
    (pin "1" (uuid c0ce2ad5-5c05-4653-b4cd-6c9dab1af8e2))
  )

  (symbol (lib_id "Connector:TestPoint") (at 28.702 173.482 270) (unit 1)
    (in_bom yes) (on_board yes)
    (uuid a44609a6-eae5-42fb-8664-ec3118d9487d)
    (property "Reference" "TP4" (id 0) (at 33.4011 172.3326 90)
      (effects (font (size 1.27 1.27)) (justify left))
    )
    (property "Value" "VCC" (id 1) (at 33.401 174.631 90)
      (effects (font (size 1.27 1.27)) (justify left))
    )
    (property "Footprint" "TestPoint:TestPoint_Pad_D1.0mm" (id 2) (at 28.702 178.562 0)
      (effects (font (size 1.27 1.27)) hide)
    )
    (property "Datasheet" "~" (id 3) (at 28.702 178.562 0)
      (effects (font (size 1.27 1.27)) hide)
    )
    (pin "1" (uuid c0ce2ad5-5c05-4653-b4cd-6c9dab1af8e2))
  )

  (symbol (lib_id "Connector:TestPoint") (at 28.702 178.562 270) (unit 1)
    (in_bom yes) (on_board yes)
    (uuid 8689d4a5-f32d-4acf-8692-28ecb79a3e18)
    (property "Reference" "TP5" (id 0) (at 33.4011 177.4126 90)
      (effects (font (size 1.27 1.27)) (justify left))
    )
    (property "Value" "3V3" (id 1) (at 33.401 179.711 90)
      (effects (font (size 1.27 1.27)) (justify left))
    )
    (property "Footprint" "TestPoint:TestPoint_Pad_D1.0mm" (id 2) (at 28.702 183.642 0)
      (effects (font (size 1.27 1.27)) hide)
    )
    (property "Datasheet" "~" (id 3) (at 28.702 183.642 0)
      (effects (font (size 1.27 1.27)) hide)
    )
    (pin "1" (uuid c0ce2ad5-5c05-4653-b4cd-6c9dab1af8e2))
  )

  (symbol (lib_id "Connector:TestPoint") (at 28.702 183.896 270) (unit 1)
    (in_bom yes) (on_board yes)
    (uuid 12b7b94e-6603-448a-8637-4c701b69b047)
    (property "Reference" "TP6" (id 0) (at 33.401 182.747 90)
      (effects (font (size 1.27 1.27)) (justify left))
    )
    (property "Value" "3V3_LN" (id 1) (at 33.401 185.045 90)
      (effects (font (size 1.27 1.27)) (justify left))
    )
    (property "Footprint" "TestPoint:TestPoint_Pad_D1.0mm" (id 2) (at 28.702 188.976 0)
      (effects (font (size 1.27 1.27)) hide)
    )
    (property "Datasheet" "~" (id 3) (at 28.702 188.976 0)
      (effects (font (size 1.27 1.27)) hide)
    )
    (pin "1" (uuid c0ce2ad5-5c05-4653-b4cd-6c9dab1af8e2))
  )

  (symbol (lib_id "power:GND") (at 24.384 65.278 0) (unit 1)
    (in_bom yes) (on_board yes)
    (uuid cfccc776-580d-4069-ab5a-23b8642bcae8)
    (property "Reference" "#PWR09" (id 0) (at 24.384 71.628 0)
      (effects (font (size 1.27 1.27)) hide)
    )
    (property "Value" "GND" (id 1) (at 24.4983 69.6024 0))
    (property "Footprint" "" (id 2) (at 24.384 65.278 0)
      (effects (font (size 1.27 1.27)) hide)
    )
    (property "Datasheet" "" (id 3) (at 24.384 65.278 0)
      (effects (font (size 1.27 1.27)) hide)
    )
    (pin "1" (uuid 549b6a4a-349d-4f18-ba99-0f74a60e9c32))
  )

  (symbol (lib_id "power:GND") (at 28.448 120.142 0) (unit 1)
    (in_bom yes) (on_board yes)
    (uuid 3a8870fd-fd11-4ae9-a14e-a7dcf0b790e6)
    (property "Reference" "#PWR010" (id 0) (at 28.448 126.492 0)
      (effects (font (size 1.27 1.27)) hide)
    )
    (property "Value" "GND" (id 1) (at 28.5623 124.4664 0))
    (property "Footprint" "" (id 2) (at 28.448 120.142 0)
      (effects (font (size 1.27 1.27)) hide)
    )
    (property "Datasheet" "" (id 3) (at 28.448 120.142 0)
      (effects (font (size 1.27 1.27)) hide)
    )
    (pin "1" (uuid 549b6a4a-349d-4f18-ba99-0f74a60e9c32))
  )

  (symbol (lib_id "power:GND") (at 56.896 32.512 0) (unit 1)
    (in_bom yes) (on_board yes)
    (uuid 0f29085b-edfa-45f4-a347-47260fec1194)
    (property "Reference" "#PWR011" (id 0) (at 56.896 38.862 0)
      (effects (font (size 1.27 1.27)) hide)
    )
    (property "Value" "GND" (id 1) (at 57.0103 36.8364 0))
    (property "Footprint" "" (id 2) (at 56.896 32.512 0)
      (effects (font (size 1.27 1.27)) hide)
    )
    (property "Datasheet" "" (id 3) (at 56.896 32.512 0)
      (effects (font (size 1.27 1.27)) hide)
    )
    (pin "1" (uuid 549b6a4a-349d-4f18-ba99-0f74a60e9c32))
  )

  (symbol (lib_id "power:GND") (at 92.964 94.488 0) (unit 1)
    (in_bom yes) (on_board yes)
    (uuid 1edb365b-76ec-48cf-b8ec-9293e365055c)
    (property "Reference" "#PWR012" (id 0) (at 92.964 100.838 0)
      (effects (font (size 1.27 1.27)) hide)
    )
    (property "Value" "GND" (id 1) (at 93.0783 98.8124 0))
    (property "Footprint" "" (id 2) (at 92.964 94.488 0)
      (effects (font (size 1.27 1.27)) hide)
    )
    (property "Datasheet" "" (id 3) (at 92.964 94.488 0)
      (effects (font (size 1.27 1.27)) hide)
    )
    (pin "1" (uuid 040037a2-6b83-4e13-b4ea-a9efaf971824))
  )

  (symbol (lib_id "power:GND") (at 98.044 41.148 0) (unit 1)
    (in_bom yes) (on_board yes)
    (uuid 778b5999-6978-4d59-a5e9-eb47d1b1b9be)
    (property "Reference" "#PWR013" (id 0) (at 98.044 47.498 0)
      (effects (font (size 1.27 1.27)) hide)
    )
    (property "Value" "GND" (id 1) (at 98.1583 45.4724 0))
    (property "Footprint" "" (id 2) (at 98.044 41.148 0)
      (effects (font (size 1.27 1.27)) hide)
    )
    (property "Datasheet" "" (id 3) (at 98.044 41.148 0)
      (effects (font (size 1.27 1.27)) hide)
    )
    (pin "1" (uuid 549b6a4a-349d-4f18-ba99-0f74a60e9c32))
  )

  (symbol (lib_id "power:GND") (at 104.648 89.154 0) (unit 1)
    (in_bom yes) (on_board yes)
    (uuid 49983e4c-939e-4761-8bdd-b539164f918a)
    (property "Reference" "#PWR014" (id 0) (at 104.648 95.504 0)
      (effects (font (size 1.27 1.27)) hide)
    )
    (property "Value" "GND" (id 1) (at 104.7623 93.4784 0))
    (property "Footprint" "" (id 2) (at 104.648 89.154 0)
      (effects (font (size 1.27 1.27)) hide)
    )
    (property "Datasheet" "" (id 3) (at 104.648 89.154 0)
      (effects (font (size 1.27 1.27)) hide)
    )
    (pin "1" (uuid 040037a2-6b83-4e13-b4ea-a9efaf971824))
  )

  (symbol (lib_id "power:GND") (at 127.254 89.662 0) (unit 1)
    (in_bom yes) (on_board yes)
    (uuid b7c4e6b6-14b2-459f-b714-9871443321e6)
    (property "Reference" "#PWR015" (id 0) (at 127.254 96.012 0)
      (effects (font (size 1.27 1.27)) hide)
    )
    (property "Value" "GND" (id 1) (at 127.3683 93.9864 0))
    (property "Footprint" "" (id 2) (at 127.254 89.662 0)
      (effects (font (size 1.27 1.27)) hide)
    )
    (property "Datasheet" "" (id 3) (at 127.254 89.662 0)
      (effects (font (size 1.27 1.27)) hide)
    )
    (pin "1" (uuid 040037a2-6b83-4e13-b4ea-a9efaf971824))
  )

  (symbol (lib_id "power:GND") (at 142.24 82.804 0) (unit 1)
    (in_bom yes) (on_board yes)
    (uuid e02c7413-37d3-4fd5-8e33-76a6526c6e33)
    (property "Reference" "#PWR016" (id 0) (at 142.24 89.154 0)
      (effects (font (size 1.27 1.27)) hide)
    )
    (property "Value" "GND" (id 1) (at 142.3543 87.1284 0))
    (property "Footprint" "" (id 2) (at 142.24 82.804 0)
      (effects (font (size 1.27 1.27)) hide)
    )
    (property "Datasheet" "" (id 3) (at 142.24 82.804 0)
      (effects (font (size 1.27 1.27)) hide)
    )
    (pin "1" (uuid 040037a2-6b83-4e13-b4ea-a9efaf971824))
  )

  (symbol (lib_id "power:GND") (at 157.48 40.894 0) (unit 1)
    (in_bom yes) (on_board yes)
    (uuid c388aba7-9b25-4518-8e47-adaab04ac7e2)
    (property "Reference" "#PWR017" (id 0) (at 157.48 47.244 0)
      (effects (font (size 1.27 1.27)) hide)
    )
    (property "Value" "GND" (id 1) (at 157.5943 45.2184 0))
    (property "Footprint" "" (id 2) (at 157.48 40.894 0)
      (effects (font (size 1.27 1.27)) hide)
    )
    (property "Datasheet" "" (id 3) (at 157.48 40.894 0)
      (effects (font (size 1.27 1.27)) hide)
    )
    (pin "1" (uuid ff3a094e-31a6-4b0c-92ab-08c75ae63e98))
  )

  (symbol (lib_id "power:GND") (at 178.816 87.122 0) (unit 1)
    (in_bom yes) (on_board yes)
    (uuid 549dd4a3-3e90-412b-8d78-0babe00049f7)
    (property "Reference" "#PWR018" (id 0) (at 178.816 93.472 0)
      (effects (font (size 1.27 1.27)) hide)
    )
    (property "Value" "GND" (id 1) (at 178.9303 91.4464 0))
    (property "Footprint" "" (id 2) (at 178.816 87.122 0)
      (effects (font (size 1.27 1.27)) hide)
    )
    (property "Datasheet" "" (id 3) (at 178.816 87.122 0)
      (effects (font (size 1.27 1.27)) hide)
    )
    (pin "1" (uuid 829a314b-9807-4d83-8cdd-fcc74fb01d7e))
  )

  (symbol (lib_id "Device:R") (at 49.022 30.988 90) (unit 1)
    (in_bom yes) (on_board yes)
    (uuid f82d19d6-ea4e-4806-a87f-2443b85259e7)
    (property "Reference" "R2" (id 0) (at 46.736 28.8098 90))
    (property "Value" "5.1k" (id 1) (at 49.022 31.108 90))
    (property "Footprint" "Resistor_SMD:R_0402_1005Metric" (id 2) (at 49.022 32.766 90)
      (effects (font (size 1.27 1.27)) hide)
    )
    (property "Datasheet" "https://datasheet.lcsc.com/szlcsc/YAGEO-RC0402JR-075K1L_C105873.pdf" (id 3) (at 49.022 30.988 0)
      (effects (font (size 1.27 1.27)) hide)
    )
    (property "LCSC" " C105873 " (id 4) (at 49.022 30.988 90)
      (effects (font (size 1.27 1.27)) hide)
    )
    (property "MPN" " RC0402JR-075K1L" (id 4) (at 49.022 30.988 0)
      (effects (font (size 1.27 1.27)) hide)
    )
    (pin "1" (uuid 2ced5564-99f8-4aed-849b-8920718237b7))
    (pin "2" (uuid e7092cad-c526-4492-95aa-f592cdbc10f4))
  )

  (symbol (lib_id "Device:R") (at 49.022 33.528 90) (unit 1)
    (in_bom yes) (on_board yes)
    (uuid 7f3609ef-6fde-4b88-87d1-509096ff7a78)
    (property "Reference" "R3" (id 0) (at 46.482 35.9474 90))
    (property "Value" "5.1k" (id 1) (at 49.022 33.674 90))
    (property "Footprint" "Resistor_SMD:R_0402_1005Metric" (id 2) (at 49.022 35.306 90)
      (effects (font (size 1.27 1.27)) hide)
    )
    (property "Datasheet" "https://datasheet.lcsc.com/szlcsc/YAGEO-RC0402JR-075K1L_C105873.pdf" (id 3) (at 49.022 33.528 0)
      (effects (font (size 1.27 1.27)) hide)
    )
    (property "LCSC" " C105873 " (id 4) (at 49.022 33.528 90)
      (effects (font (size 1.27 1.27)) hide)
    )
    (property "MPN" " RC0402JR-075K1L" (id 4) (at 49.022 33.528 0)
      (effects (font (size 1.27 1.27)) hide)
    )
    (pin "1" (uuid 2ced5564-99f8-4aed-849b-8920718237b7))
    (pin "2" (uuid e7092cad-c526-4492-95aa-f592cdbc10f4))
  )

  (symbol (lib_id "Device:R") (at 88.392 71.882 180) (unit 1)
    (in_bom yes) (on_board yes)
    (uuid b4570969-7cf6-403f-8f07-c0f56c869737)
    (property "Reference" "R4" (id 0) (at 86.6139 70.7326 0)
      (effects (font (size 1.27 1.27)) (justify left))
    )
    (property "Value" "330R" (id 1) (at 86.6139 73.0313 0)
      (effects (font (size 1.27 1.27)) (justify left))
    )
    (property "Footprint" "Resistor_SMD:R_0402_1005Metric" (id 2) (at 90.17 71.882 90)
      (effects (font (size 1.27 1.27)) hide)
    )
    (property "Datasheet" "~" (id 3) (at 88.392 71.882 0)
      (effects (font (size 1.27 1.27)) hide)
    )
    (property "LCSC" " C105875" (id 4) (at 88.392 71.882 0)
      (effects (font (size 1.27 1.27)) hide)
    )
    (property "MPN" "RC0402JR-07330RL" (id 5) (at 88.392 71.882 0)
      (effects (font (size 1.27 1.27)) hide)
    )
    (pin "1" (uuid 2ced5564-99f8-4aed-849b-8920718237b7))
    (pin "2" (uuid e7092cad-c526-4492-95aa-f592cdbc10f4))
  )

  (symbol (lib_id "Device:R") (at 117.094 84.582 0) (unit 1)
    (in_bom yes) (on_board yes)
    (uuid 6f0e6f2c-eca4-40cb-bbbd-50efc7b95e9d)
    (property "Reference" "R5" (id 0) (at 118.8721 82.2833 0)
      (effects (font (size 1.27 1.27)) (justify left))
    )
    (property "Value" "2k" (id 1) (at 118.8721 84.582 0)
      (effects (font (size 1.27 1.27)) (justify left))
    )
    (property "Footprint" "Resistor_SMD:R_0402_1005Metric" (id 2) (at 115.316 84.582 90)
      (effects (font (size 1.27 1.27)) hide)
    )
    (property "Datasheet" "~" (id 3) (at 117.094 84.582 0)
      (effects (font (size 1.27 1.27)) hide)
    )
    (property "Tolerance" "1%" (id 4) (at 118.8721 86.8807 0)
      (effects (font (size 1.27 1.27)) (justify left))
    )
    (property "MPN" "RC0402FR-072KL" (id 5) (at 117.094 84.582 0)
      (effects (font (size 1.27 1.27)) hide)
    )
    (property "LCSC" "C60488" (id 4) (at 117.094 84.582 0)
      (effects (font (size 1.27 1.27)) hide)
    )
    (pin "1" (uuid 2ced5564-99f8-4aed-849b-8920718237b7))
    (pin "2" (uuid e7092cad-c526-4492-95aa-f592cdbc10f4))
  )

  (symbol (lib_id "Device:R") (at 178.816 70.358 0) (unit 1)
    (in_bom yes) (on_board yes)
    (uuid 26202bb1-e6cd-4459-99f6-729c67c4a6cd)
    (property "Reference" "R6" (id 0) (at 180.5941 68.0593 0)
      (effects (font (size 1.27 1.27)) (justify left))
    )
    (property "Value" "1M" (id 1) (at 180.5941 70.358 0)
      (effects (font (size 1.27 1.27)) (justify left))
    )
    (property "Footprint" "Resistor_SMD:R_0402_1005Metric" (id 2) (at 177.038 70.358 90)
      (effects (font (size 1.27 1.27)) hide)
    )
    (property "Datasheet" "~" (id 3) (at 178.816 70.358 0)
      (effects (font (size 1.27 1.27)) hide)
    )
    (property "LCSC" "C93949" (id 4) (at 180.5941 72.6567 0)
      (effects (font (size 1.27 1.27)) (justify left))
    )
    (property "MPN" "RC0402JR-071ML" (id 4) (at 178.816 70.358 0)
      (effects (font (size 1.27 1.27)) hide)
    )
    (pin "1" (uuid 3bf2f71e-f21b-47dc-8adb-32001616fabe))
    (pin "2" (uuid 326793ed-ebcf-42a8-aa99-9e9bd698d3e1))
  )

  (symbol (lib_id "Device:R") (at 178.816 79.756 0) (unit 1)
    (in_bom yes) (on_board yes)
    (uuid 5ad94d33-c778-403e-a257-422f958e980a)
    (property "Reference" "R7" (id 0) (at 180.5941 77.4573 0)
      (effects (font (size 1.27 1.27)) (justify left))
    )
    (property "Value" "1M" (id 1) (at 180.594 79.756 0)
      (effects (font (size 1.27 1.27)) (justify left))
    )
    (property "Footprint" "Resistor_SMD:R_0402_1005Metric" (id 2) (at 177.038 79.756 90)
      (effects (font (size 1.27 1.27)) hide)
    )
    (property "Datasheet" "~" (id 3) (at 178.816 79.756 0)
      (effects (font (size 1.27 1.27)) hide)
    )
    (property "LCSC" "C93949" (id 4) (at 180.5941 82.0547 0)
      (effects (font (size 1.27 1.27)) (justify left))
    )
    (property "MPN" "RC0402JR-071ML" (id 4) (at 178.816 79.756 0)
      (effects (font (size 1.27 1.27)) hide)
    )
    (pin "1" (uuid 3bf2f71e-f21b-47dc-8adb-32001616fabe))
    (pin "2" (uuid 326793ed-ebcf-42a8-aa99-9e9bd698d3e1))
  )

  (symbol (lib_id "Device:R") (at 193.548 74.93 90) (unit 1)
    (in_bom yes) (on_board yes)
    (uuid b89e6459-65d0-4575-af9a-a5946732671a)
    (property "Reference" "R8" (id 0) (at 193.548 67.4052 90))
    (property "Value" "0R" (id 1) (at 193.548 69.7039 90))
    (property "Footprint" "Resistor_SMD:R_0402_1005Metric" (id 2) (at 193.548 76.708 90)
      (effects (font (size 1.27 1.27)) hide)
    )
    (property "Datasheet" "~" (id 3) (at 193.548 74.93 0)
      (effects (font (size 1.27 1.27)) hide)
    )
    (property "LCSC" "C60485" (id 4) (at 193.548 72.0026 90))
    (property "MPN" " RC0402JR-070RL" (id 4) (at 193.548 74.93 0)
      (effects (font (size 1.27 1.27)) hide)
    )
    (pin "1" (uuid 3bf2f71e-f21b-47dc-8adb-32001616fabe))
    (pin "2" (uuid 326793ed-ebcf-42a8-aa99-9e9bd698d3e1))
  )

  (symbol (lib_id "Diode:1N5819") (at 40.894 103.124 180) (unit 1)
    (in_bom yes) (on_board yes)
    (uuid 8948aba6-6d34-45cd-8ab6-decde09ae290)
    (property "Reference" "D2" (id 0) (at 40.894 97.6438 0))
    (property "Value" "1N5819" (id 1) (at 40.894 99.9425 0))
    (property "Footprint" "Diode_SMD:D_SOD-323" (id 2) (at 40.894 98.679 0)
      (effects (font (size 1.27 1.27)) hide)
    )
    (property "Datasheet" "http://www.vishay.com/docs/88525/1n5817.pdf" (id 3) (at 40.894 103.124 0)
      (effects (font (size 1.27 1.27)) hide)
    )
    (property "LCSC" "C369937" (id 4) (at 40.894 103.124 0)
      (effects (font (size 1.27 1.27)) hide)
    )
    (property "MPN" " 1N5819WS" (id 4) (at 40.894 103.124 0)
      (effects (font (size 1.27 1.27)) hide)
    )
    (pin "1" (uuid 49b2a7ba-eb0e-44de-840c-3de2593ceb4f))
    (pin "2" (uuid 8031b47a-b6f1-4b4d-9957-dd107011b863))
  )

  (symbol (lib_id "Connector:Conn_01x02_Male") (at 21.844 116.586 0) (unit 1)
    (in_bom yes) (on_board yes)
    (uuid cccc3129-0269-45f4-909a-0d2aab1a485e)
    (property "Reference" "J2" (id 0) (at 21.1327 117.2654 0)
      (effects (font (size 1.27 1.27)) (justify right))
    )
    (property "Value" "PWR" (id 1) (at 21.133 119.564 0)
      (effects (font (size 1.27 1.27)) (justify right))
    )
    (property "Footprint" "Connector_PinHeader_2.00mm:PinHeader_1x02_P2.00mm_Vertical" (id 2) (at 21.844 116.586 0)
      (effects (font (size 1.27 1.27)) hide)
    )
    (property "Datasheet" "~" (id 3) (at 21.844 116.586 0)
      (effects (font (size 1.27 1.27)) hide)
    )
    (pin "1" (uuid f99e7c2e-eb0a-4296-aef2-eb91d0c303c7))
    (pin "2" (uuid d8ad66f3-3c70-417e-a86b-dc8faaf77102))
  )

  (symbol (lib_id "Connector:Conn_01x02_Female") (at 147.32 77.216 0) (unit 1)
    (in_bom yes) (on_board yes)
    (uuid 66c17fc2-fe0d-41e1-9cd8-64e5afabf3cb)
    (property "Reference" "J4" (id 0) (at 148.0313 77.7938 0)
      (effects (font (size 1.27 1.27)) (justify left))
    )
    (property "Value" "LiPo conn" (id 1) (at 148.031 80.092 0)
      (effects (font (size 1.27 1.27)) (justify left))
    )
    (property "Footprint" "Connector_JST:JST_PH_S2B-PH-SM4-TB_1x02-1MP_P2.00mm_Horizontal" (id 2) (at 147.32 77.216 0)
      (effects (font (size 1.27 1.27)) hide)
    )
    (property "Datasheet" "~" (id 3) (at 147.32 77.216 0)
      (effects (font (size 1.27 1.27)) hide)
    )
    (property "LCSC" "C519168" (id 4) (at 147.32 77.216 0)
      (effects (font (size 1.27 1.27)) hide)
    )
    (property "MPN" "X2016WRS-02-9TSW" (id 5) (at 147.32 77.216 0)
      (effects (font (size 1.27 1.27)) hide)
    )
    (pin "1" (uuid e4b8726d-1122-491b-947f-ac9777875ef5))
    (pin "2" (uuid 9a3ae848-2925-4d5d-b06a-b04e2e66d2f2))
  )

  (symbol (lib_id "Device:LED") (at 99.314 65.278 0) (mirror x) (unit 1)
    (in_bom yes) (on_board yes)
    (uuid 37924f3c-4514-417a-baed-e16e12dc4be4)
    (property "Reference" "D3" (id 0) (at 99.1235 58.9088 0))
    (property "Value" "LED" (id 1) (at 99.1235 61.2075 0))
    (property "Footprint" "LED_SMD:LED_0402_1005Metric" (id 2) (at 99.314 65.278 0)
      (effects (font (size 1.27 1.27)) hide)
    )
    (property "Datasheet" "~" (id 3) (at 99.314 65.278 0)
      (effects (font (size 1.27 1.27)) hide)
    )
    (property "LCSC" " C364554" (id 4) (at 99.314 65.278 0)
      (effects (font (size 1.27 1.27)) hide)
    )
    (property "MPN" " LTST-C281KFKT-5A" (id 5) (at 99.314 65.278 0)
      (effects (font (size 1.27 1.27)) hide)
    )
    (pin "1" (uuid 8e93ec39-cb36-4978-a532-a194deb99984))
    (pin "2" (uuid dca5dbff-fee9-44a1-ba57-4727fb33098b))
  )

  (symbol (lib_id "Device:C") (at 84.074 32.258 0) (unit 1)
    (in_bom yes) (on_board yes)
    (uuid e5f9a1fe-fa93-4cc5-8901-0ed03bb58195)
    (property "Reference" "C4" (id 0) (at 81.1529 29.9593 0)
      (effects (font (size 1.27 1.27)) (justify right))
    )
    (property "Value" "1u" (id 1) (at 81.1529 32.258 0)
      (effects (font (size 1.27 1.27)) (justify right))
    )
    (property "Footprint" "Capacitor_SMD:C_0402_1005Metric" (id 2) (at 85.0392 36.068 0)
      (effects (font (size 1.27 1.27)) hide)
    )
    (property "Datasheet" "~" (id 3) (at 84.074 32.258 0)
      (effects (font (size 1.27 1.27)) hide)
    )
    (property "Type" "X5R" (id 4) (at 81.1529 34.5567 0)
      (effects (font (size 1.27 1.27)) (justify right))
    )
    (property "MPN" " JMK105BJ105KV-F " (id 5) (at 84.074 32.258 0)
      (effects (font (size 1.27 1.27)) hide)
    )
    (pin "1" (uuid acbec075-6d3f-40e5-8803-9346c0a9dbc4))
    (pin "2" (uuid 35a384f0-aa42-41fd-bf7c-be58408aa14b))
  )

  (symbol (lib_id "Device:C") (at 92.964 88.646 180) (unit 1)
    (in_bom yes) (on_board yes)
    (uuid 63e22068-ebe8-477c-a996-fb96bebd15c6)
    (property "Reference" "C5" (id 0) (at 90.0429 90.9447 0)
      (effects (font (size 1.27 1.27)) (justify left))
    )
    (property "Value" "10u" (id 1) (at 90.043 88.646 0)
      (effects (font (size 1.27 1.27)) (justify left))
    )
    (property "Footprint" "Capacitor_SMD:C_0603_1608Metric" (id 2) (at 91.9988 84.836 0)
      (effects (font (size 1.27 1.27)) hide)
    )
    (property "Datasheet" "~" (id 3) (at 92.964 88.646 0)
      (effects (font (size 1.27 1.27)) hide)
    )
    (property "Type" "X5R" (id 4) (at 90.0429 86.3473 0)
      (effects (font (size 1.27 1.27)) (justify left))
    )
    (property "MPN" " JMK107BJ106MA-T" (id 5) (at 92.964 88.646 0)
      (effects (font (size 1.27 1.27)) hide)
    )
    (pin "1" (uuid c409b6d3-2e99-422e-83c0-027302224a5f))
    (pin "2" (uuid 22063e68-0891-43df-89ff-90cc3cfd015b))
  )

  (symbol (lib_id "Device:C") (at 108.204 32.258 0) (unit 1)
    (in_bom yes) (on_board yes)
    (uuid 30fda291-35c8-4dc2-87a4-2144b6e44266)
    (property "Reference" "C6" (id 0) (at 111.1251 29.9593 0)
      (effects (font (size 1.27 1.27)) (justify left))
    )
    (property "Value" "1u" (id 1) (at 111.1251 32.258 0)
      (effects (font (size 1.27 1.27)) (justify left))
    )
    (property "Footprint" "Capacitor_SMD:C_0402_1005Metric" (id 2) (at 109.1692 36.068 0)
      (effects (font (size 1.27 1.27)) hide)
    )
    (property "Datasheet" "~" (id 3) (at 108.204 32.258 0)
      (effects (font (size 1.27 1.27)) hide)
    )
    (property "Type" "X5R" (id 4) (at 111.1251 34.5567 0)
      (effects (font (size 1.27 1.27)) (justify left))
    )
    (property "MPN" " JMK105BJ105KV-F " (id 5) (at 108.204 32.258 0)
      (effects (font (size 1.27 1.27)) hide)
    )
    (pin "1" (uuid acbec075-6d3f-40e5-8803-9346c0a9dbc4))
    (pin "2" (uuid 35a384f0-aa42-41fd-bf7c-be58408aa14b))
  )

  (symbol (lib_id "Device:C") (at 127.254 83.566 0) (unit 1)
    (in_bom yes) (on_board yes)
    (uuid 2368d0b4-385f-48e6-8c9e-1967e792e67b)
    (property "Reference" "C7" (id 0) (at 130.1751 81.2673 0)
      (effects (font (size 1.27 1.27)) (justify left))
    )
    (property "Value" "10u" (id 1) (at 130.175 83.566 0)
      (effects (font (size 1.27 1.27)) (justify left))
    )
    (property "Footprint" "Capacitor_SMD:C_0603_1608Metric" (id 2) (at 128.2192 87.376 0)
      (effects (font (size 1.27 1.27)) hide)
    )
    (property "Datasheet" "~" (id 3) (at 127.254 83.566 0)
      (effects (font (size 1.27 1.27)) hide)
    )
    (property "Type" "X5R" (id 4) (at 130.1751 85.8647 0)
      (effects (font (size 1.27 1.27)) (justify left))
    )
    (property "MPN" " JMK107BJ106MA-T" (id 5) (at 127.254 83.566 0)
      (effects (font (size 1.27 1.27)) hide)
    )
    (pin "1" (uuid c409b6d3-2e99-422e-83c0-027302224a5f))
    (pin "2" (uuid 22063e68-0891-43df-89ff-90cc3cfd015b))
  )

  (symbol (lib_id "Device:C") (at 142.24 32.004 0) (unit 1)
    (in_bom yes) (on_board yes)
    (uuid 4d983dce-8fc2-43a8-968f-d55981d92bab)
    (property "Reference" "C8" (id 0) (at 145.1611 29.7053 0)
      (effects (font (size 1.27 1.27)) (justify left))
    )
    (property "Value" "1u" (id 1) (at 145.1611 32.004 0)
      (effects (font (size 1.27 1.27)) (justify left))
    )
    (property "Footprint" "Capacitor_SMD:C_0402_1005Metric" (id 2) (at 143.2052 35.814 0)
      (effects (font (size 1.27 1.27)) hide)
    )
    (property "Datasheet" "~" (id 3) (at 142.24 32.004 0)
      (effects (font (size 1.27 1.27)) hide)
    )
    (property "Type" "X5R" (id 4) (at 145.1611 34.3027 0)
      (effects (font (size 1.27 1.27)) (justify left))
    )
    (property "MPN" " JMK105BJ105KV-F " (id 5) (at 142.24 32.004 0)
      (effects (font (size 1.27 1.27)) hide)
    )
    (pin "1" (uuid c409b6d3-2e99-422e-83c0-027302224a5f))
    (pin "2" (uuid 22063e68-0891-43df-89ff-90cc3cfd015b))
  )

  (symbol (lib_id "Device:C") (at 171.45 32.004 0) (unit 1)
    (in_bom yes) (on_board yes)
    (uuid 9f24d5b9-cc0f-4510-b1b7-b76d99283bdd)
    (property "Reference" "C9" (id 0) (at 174.3711 29.7053 0)
      (effects (font (size 1.27 1.27)) (justify left))
    )
    (property "Value" "1u" (id 1) (at 174.3711 32.004 0)
      (effects (font (size 1.27 1.27)) (justify left))
    )
    (property "Footprint" "Capacitor_SMD:C_0402_1005Metric" (id 2) (at 172.4152 35.814 0)
      (effects (font (size 1.27 1.27)) hide)
    )
    (property "Datasheet" "~" (id 3) (at 171.45 32.004 0)
      (effects (font (size 1.27 1.27)) hide)
    )
    (property "Type" "X5R" (id 4) (at 174.3711 34.3027 0)
      (effects (font (size 1.27 1.27)) (justify left))
    )
    (property "MPN" " JMK105BJ105KV-F " (id 5) (at 171.45 32.004 0)
      (effects (font (size 1.27 1.27)) hide)
    )
    (pin "1" (uuid c409b6d3-2e99-422e-83c0-027302224a5f))
    (pin "2" (uuid 22063e68-0891-43df-89ff-90cc3cfd015b))
  )

  (symbol (lib_id "Device:C") (at 173.482 80.01 0) (unit 1)
    (in_bom yes) (on_board yes)
    (uuid 519a5296-f000-4c75-bc68-0ac200988146)
    (property "Reference" "C10" (id 0) (at 170.5609 78.8606 0)
      (effects (font (size 1.27 1.27)) (justify right))
    )
    (property "Value" "100n" (id 1) (at 170.5609 81.1593 0)
      (effects (font (size 1.27 1.27)) (justify right))
    )
    (property "Footprint" "Capacitor_SMD:C_0402_1005Metric" (id 2) (at 174.4472 83.82 0)
      (effects (font (size 1.27 1.27)) hide)
    )
    (property "Datasheet" "~" (id 3) (at 173.482 80.01 0)
      (effects (font (size 1.27 1.27)) hide)
    )
    (property "LCSC" " C60474" (id 4) (at 173.482 80.01 0)
      (effects (font (size 1.27 1.27)) hide)
    )
    (property "MPN" " CC0402KRX7R7BB104" (id 5) (at 173.482 80.01 0)
      (effects (font (size 1.27 1.27)) hide)
    )
    (pin "1" (uuid dbe7b25a-aede-4b7a-9629-e9fc93045398))
    (pin "2" (uuid 9ab090cf-4d7e-431f-98c1-65a76b84142b))
  )

  (symbol (lib_id "Device:Thermistor_PTC") (at 49.53 25.908 270) (unit 1)
    (in_bom yes) (on_board yes)
    (uuid f263c74f-08ff-46d1-be39-98028e1b79d0)
    (property "Reference" "TH1" (id 0) (at 49.53 18.6498 90))
    (property "Value" "500mA" (id 1) (at 49.53 20.948 90))
    (property "Footprint" "Resistor_SMD:R_0805_2012Metric" (id 2) (at 44.45 27.178 0)
      (effects (font (size 1.27 1.27)) (justify left) hide)
    )
    (property "Datasheet" "https://datasheet.lcsc.com/szlcsc/BOURNS-MF-PSMF075X-2_C116173.pdf" (id 3) (at 49.53 25.908 0)
      (effects (font (size 1.27 1.27)) hide)
    )
    (property "LCSC" "C116173" (id 4) (at 49.53 25.908 90)
      (effects (font (size 1.27 1.27)) hide)
    )
    (property "MPN" "MF-PSMF075X-2" (id 5) (at 49.53 25.908 90)
      (effects (font (size 1.27 1.27)) hide)
    )
    (pin "1" (uuid d740fda9-488d-4052-8899-03f4819b1e16))
    (pin "2" (uuid ff0a2f37-d87a-457b-b432-45755772f337))
  )

  (symbol (lib_id "Aethon:SI2301B") (at 32.512 94.488 90) (unit 1)
    (in_bom yes) (on_board yes)
    (uuid 69b0d784-8ac6-4442-8d83-b28bf824895d)
    (property "Reference" "Q1" (id 0) (at 32.639 83.5342 90))
    (property "Value" "SI2301B" (id 1) (at 32.639 85.8329 90))
    (property "Footprint" "Package_TO_SOT_SMD:SOT-23" (id 2) (at 34.417 89.408 0)
      (effects (font (size 1.27 1.27)) (justify left) hide)
    )
    (property "Datasheet" "https://datasheet.lcsc.com/szlcsc/1912111437_UMW-Youtai-Semiconductor-Co-Ltd-SI2301B_C359103.pdf" (id 3) (at 32.512 91.948 0)
      (effects (font (size 1.27 1.27)) (justify left) hide)
    )
    (property "LCSC" "C359103" (id 4) (at 32.639 88.1316 90))
    (property "MPN" " SI2301B" (id 4) (at 32.512 94.488 0)
      (effects (font (size 1.27 1.27)) hide)
    )
    (pin "3" (uuid b9b9aedf-29f0-43fc-85d9-a4d8d59303f9))
    (pin "1" (uuid 4e6fbefe-caad-4a0c-8866-7ec0f2b31fbe))
    (pin "2" (uuid a66dc42f-1373-43b3-847b-53304cdf5c57))
  )

  (symbol (lib_id "Regulator_Linear:XC6206PxxxMR") (at 157.48 26.924 0) (unit 1)
    (in_bom yes) (on_board yes)
    (uuid ad56727a-97e8-4d82-b3ab-72a1e8ed2cf3)
    (property "Reference" "U4" (id 0) (at 157.48 20.8088 0))
    (property "Value" "XC6206P332MR" (id 1) (at 157.48 23.108 0))
    (property "Footprint" "Package_TO_SOT_SMD:SOT-23" (id 2) (at 157.48 21.209 0)
      (effects (font (size 1.27 1.27) italic) hide)
    )
    (property "Datasheet" "https://www.torexsemi.com/file/xc6206/XC6206.pdf" (id 3) (at 157.48 26.924 0)
      (effects (font (size 1.27 1.27)) hide)
    )
    (property "LCSC" "C5446" (id 4) (at 157.48 26.924 0)
      (effects (font (size 1.27 1.27)) hide)
    )
    (property "MPN" " XC6206P332MR" (id 5) (at 157.48 26.924 0)
      (effects (font (size 1.27 1.27)) hide)
    )
    (pin "1" (uuid 7d82291e-e581-44cb-a2a6-391f0fc0763a))
    (pin "2" (uuid 9bf245bc-c476-4861-a1ed-f98c4390a564))
    (pin "3" (uuid a5027777-9c4e-4c07-8776-816c53265111))
  )

  (symbol (lib_id "Regulator_Linear:AP2112K-3.3") (at 98.044 28.448 0) (unit 1)
    (in_bom yes) (on_board yes)
    (uuid c88ee542-4398-4b52-baca-e8f92e78c443)
    (property "Reference" "U2" (id 0) (at 98.044 19.7928 0))
    (property "Value" "AP2112K-3.3" (id 1) (at 98.044 22.0915 0))
    (property "Footprint" "Package_TO_SOT_SMD:SOT-23-5" (id 2) (at 98.044 20.193 0)
      (effects (font (size 1.27 1.27)) hide)
    )
    (property "Datasheet" "https://www.diodes.com/assets/Datasheets/AP2112.pdf" (id 3) (at 98.044 25.908 0)
      (effects (font (size 1.27 1.27)) hide)
    )
    (property "LCSC" "C51118" (id 4) (at 98.044 28.448 0)
      (effects (font (size 1.27 1.27)) hide)
    )
    (property "MPN" " AP2112K-3.3TRG1" (id 4) (at 98.044 28.448 0)
      (effects (font (size 1.27 1.27)) hide)
    )
    (pin "1" (uuid 94e5ae7e-30fd-42fd-b1d8-ccbc744054ea))
    (pin "2" (uuid fde4bdfa-674e-4722-93e7-dd69f11366ac))
    (pin "3" (uuid f4286860-a0b2-4241-acd9-141052221cf8))
    (pin "4" (uuid ce7c9c08-3a9f-495e-b658-da1e1a171f15))
    (pin "5" (uuid 53de6d5a-f688-421e-b3ec-4fa00746c4b4))
  )

  (symbol (lib_id "Aethon:TP4054") (at 104.648 78.232 0) (unit 1)
    (in_bom yes) (on_board yes)
    (uuid 63c4831b-ad3b-4645-b775-306a61ad42b8)
    (property "Reference" "U3" (id 0) (at 106.172 68.1798 0))
    (property "Value" "TP4054" (id 1) (at 108.712 70.2245 0))
    (property "Footprint" "Package_TO_SOT_SMD:TSOT-23-5" (id 2) (at 104.648 74.168 0)
      (effects (font (size 1.27 1.27)) hide)
    )
    (property "Datasheet" "https://datasheet.lcsc.com/szlcsc/2006181334_UMW-Youtai-Semiconductor-Co-Ltd-TP4054_C668215.pdf" (id 3) (at 104.648 74.168 0)
      (effects (font (size 1.27 1.27)) hide)
    )
    (property "LCSC" "C668215" (id 4) (at 104.648 78.232 0)
      (effects (font (size 1.27 1.27)) hide)
    )
    (property "MPN" " TP4054" (id 4) (at 104.648 78.232 0)
      (effects (font (size 1.27 1.27)) hide)
    )
    (pin "1" (uuid 0d13043a-e8b2-44a5-8d0b-e6a7a751291f))
    (pin "2" (uuid 01910144-b42b-4513-8c50-f55969ad471b))
    (pin "3" (uuid 1d0fd7cd-f9dd-4b8b-a988-99e01bfc94fa))
    (pin "4" (uuid a5bd0387-65a0-43b7-b1dd-4b1d670309fb))
    (pin "5" (uuid 61c45d1a-97e9-4cd5-95e5-5f262ee59436))
  )

  (symbol (lib_id "Connector:USB_C_Receptacle_USB2.0") (at 28.194 41.148 0) (unit 1)
    (in_bom yes) (on_board yes)
    (uuid 7f39875b-5ad2-4111-b498-7b772ff5301d)
    (property "Reference" "J3" (id 0) (at 30.861 19.1578 0))
    (property "Value" "USB_C_Receptacle_USB2.0" (id 1) (at 30.861 21.4565 0))
    (property "Footprint" "Connector_USB:USB_C_Receptacle_XKB_U262-16XN-4BVC11" (id 2) (at 32.004 41.148 0)
      (effects (font (size 1.27 1.27)) hide)
    )
    (property "Datasheet" "https://www.usb.org/sites/default/files/documents/usb_type-c.zip" (id 3) (at 32.004 41.148 0)
      (effects (font (size 1.27 1.27)) hide)
    )
    (property "LCSC" " C319148" (id 4) (at 28.194 41.148 0)
      (effects (font (size 1.27 1.27)) hide)
    )
    (property "MPN" " U262-161N-4BVC11" (id 5) (at 28.194 41.148 0)
      (effects (font (size 1.27 1.27)) hide)
    )
    (pin "A1" (uuid f78ca398-7dcf-4eb3-9d6b-4852d7f3be85))
    (pin "A12" (uuid 4a88c54f-5ce9-4ea4-89e1-629f2d58c00f))
    (pin "A4" (uuid feb9bb0a-b35e-410c-82b9-02b67b5d81d2))
    (pin "A5" (uuid 790b22fe-fc7f-484e-b8cb-92798849ab6c))
    (pin "A6" (uuid f1ee8327-6a5a-4c48-bc96-529508bbdcb0))
    (pin "A7" (uuid 7a5e3086-d737-4cde-95a3-791a54220151))
    (pin "A8" (uuid 339931b0-96de-445c-a72f-206704ddf001))
    (pin "A9" (uuid e28dfe8f-3bb1-4dca-99ad-7c6ca9d530b3))
    (pin "B1" (uuid b80ec997-86ea-426f-b432-73d341054d45))
    (pin "B12" (uuid 13d3db03-f59d-48a0-b4e9-e31c2e3dbf04))
    (pin "B4" (uuid 5ae35ff6-9340-43d4-a97a-7d6e452db2a2))
    (pin "B5" (uuid 9634d85a-2365-4420-a5e0-1dbca38f89b6))
    (pin "B6" (uuid 98164b66-be51-4688-901e-9cc32d418233))
    (pin "B7" (uuid 036a9341-ec71-4900-91ec-a4f712b3d329))
    (pin "B8" (uuid 4bf38edd-c896-48b9-b850-2c175f3fc96f))
    (pin "B9" (uuid 010469a2-3a00-4577-b845-3507d00c74d6))
    (pin "S1" (uuid 27e96073-1df6-4796-8bb7-b1add0de40ec))
  )
)
