G04 #@! TF.GenerationSoftware,KiCad,Pcbnew,5.99.0-unknown-404eb535be~115~ubuntu21.04.1*
G04 #@! TF.CreationDate,2021-02-25T02:45:08+02:00*
G04 #@! TF.ProjectId,aethon,61657468-6f6e-42e6-9b69-6361645f7063,rev?*
G04 #@! TF.SameCoordinates,Original*
G04 #@! TF.FileFunction,Paste,Top*
G04 #@! TF.FilePolarity,Positive*
%FSLAX46Y46*%
G04 Gerber Fmt 4.6, Leading zero omitted, Abs format (unit mm)*
G04 Created by KiCad (PCBNEW 5.99.0-unknown-404eb535be~115~ubuntu21.04.1) date 2021-02-25 02:45:08*
%MOMM*%
%LPD*%
G01*
G04 APERTURE LIST*
G04 Aperture macros list*
%AMRoundRect*
0 Rectangle with rounded corners*
0 $1 Rounding radius*
0 $2 $3 $4 $5 $6 $7 $8 $9 X,Y pos of 4 corners*
0 Add a 4 corners polygon primitive as box body*
4,1,4,$2,$3,$4,$5,$6,$7,$8,$9,$2,$3,0*
0 Add four circle primitives for the rounded corners*
1,1,$1+$1,$2,$3*
1,1,$1+$1,$4,$5*
1,1,$1+$1,$6,$7*
1,1,$1+$1,$8,$9*
0 Add four rect primitives between the rounded corners*
20,1,$1+$1,$2,$3,$4,$5,0*
20,1,$1+$1,$4,$5,$6,$7,0*
20,1,$1+$1,$6,$7,$8,$9,0*
20,1,$1+$1,$8,$9,$2,$3,0*%
%AMFreePoly0*
4,1,6,0.450000,-0.800000,-0.450000,-0.800000,-0.450000,0.530000,-0.180000,0.800000,0.450000,0.800000,0.450000,-0.800000,0.450000,-0.800000,$1*%
G04 Aperture macros list end*
G04 #@! TA.AperFunction,Profile*
%ADD10C,0.050000*%
G04 #@! TD*
%ADD11RoundRect,0.140000X0.140000X0.170000X-0.140000X0.170000X-0.140000X-0.170000X0.140000X-0.170000X0*%
%ADD12RoundRect,0.225000X0.250000X-0.225000X0.250000X0.225000X-0.250000X0.225000X-0.250000X-0.225000X0*%
%ADD13RoundRect,0.140000X-0.170000X0.140000X-0.170000X-0.140000X0.170000X-0.140000X0.170000X0.140000X0*%
%ADD14RoundRect,0.135000X0.185000X-0.135000X0.185000X0.135000X-0.185000X0.135000X-0.185000X-0.135000X0*%
%ADD15RoundRect,0.147500X0.147500X0.172500X-0.147500X0.172500X-0.147500X-0.172500X0.147500X-0.172500X0*%
%ADD16RoundRect,0.135000X-0.185000X0.135000X-0.185000X-0.135000X0.185000X-0.135000X0.185000X0.135000X0*%
%ADD17R,1.800000X1.000000*%
%ADD18RoundRect,0.225000X-0.250000X0.225000X-0.250000X-0.225000X0.250000X-0.225000X0.250000X0.225000X0*%
%ADD19R,0.900000X1.700000*%
%ADD20RoundRect,0.135000X0.135000X0.185000X-0.135000X0.185000X-0.135000X-0.185000X0.135000X-0.185000X0*%
%ADD21RoundRect,0.140000X0.170000X-0.140000X0.170000X0.140000X-0.170000X0.140000X-0.170000X-0.140000X0*%
%ADD22RoundRect,0.135000X-0.135000X-0.185000X0.135000X-0.185000X0.135000X0.185000X-0.135000X0.185000X0*%
%ADD23R,1.060000X0.650000*%
%ADD24R,0.900000X1.500000*%
%ADD25R,1.500000X0.900000*%
%ADD26R,4.100000X4.100000*%
%ADD27R,0.600000X0.450000*%
%ADD28R,0.650000X1.220000*%
%ADD29R,1.700000X0.900000*%
%ADD30R,0.800000X0.900000*%
%ADD31R,0.500000X0.350000*%
%ADD32RoundRect,0.250000X-0.262500X-0.450000X0.262500X-0.450000X0.262500X0.450000X-0.262500X0.450000X0*%
%ADD33RoundRect,0.225000X0.225000X0.250000X-0.225000X0.250000X-0.225000X-0.250000X0.225000X-0.250000X0*%
%ADD34FreePoly0,0.000000*%
%ADD35R,0.550000X0.250000*%
%ADD36RoundRect,0.140000X-0.140000X-0.170000X0.140000X-0.170000X0.140000X0.170000X-0.140000X0.170000X0*%
%ADD37R,0.300000X1.150000*%
G04 APERTURE END LIST*
D10*
X59325000Y-53150000D02*
X107600000Y-53150000D01*
X107600000Y-53150000D02*
X107600000Y-84625000D01*
X107600000Y-84625000D02*
X59325000Y-84625000D01*
X59325000Y-84625000D02*
X59325000Y-53150000D01*
D11*
G04 #@! TO.C,C12*
X63741250Y-69003750D03*
X62781250Y-69003750D03*
G04 #@! TD*
D12*
G04 #@! TO.C,C11*
X65841668Y-62427498D03*
X65841668Y-60877498D03*
G04 #@! TD*
D13*
G04 #@! TO.C,C4*
X73975000Y-68099996D03*
X73975000Y-69059996D03*
G04 #@! TD*
D14*
G04 #@! TO.C,R2*
X73675000Y-75785000D03*
X73675000Y-74765000D03*
G04 #@! TD*
D15*
G04 #@! TO.C,D3*
X74203578Y-64085000D03*
X73233578Y-64085000D03*
G04 #@! TD*
D16*
G04 #@! TO.C,R7*
X79019346Y-58470654D03*
X79019346Y-59490654D03*
G04 #@! TD*
D14*
G04 #@! TO.C,R5*
X76036078Y-61420000D03*
X76036078Y-60400000D03*
G04 #@! TD*
D17*
G04 #@! TO.C,Y1*
X80800000Y-62950000D03*
X80800000Y-65450000D03*
G04 #@! TD*
D18*
G04 #@! TO.C,C5*
X70960000Y-59318930D03*
X70960000Y-60868930D03*
G04 #@! TD*
D19*
G04 #@! TO.C,SW2*
X97925000Y-56700000D03*
X101325000Y-56700000D03*
G04 #@! TD*
D20*
G04 #@! TO.C,R6*
X81204346Y-57455654D03*
X80184346Y-57455654D03*
G04 #@! TD*
D21*
G04 #@! TO.C,C2*
X78825000Y-63180000D03*
X78825000Y-62220000D03*
G04 #@! TD*
D22*
G04 #@! TO.C,R4*
X73201078Y-63010000D03*
X74221078Y-63010000D03*
G04 #@! TD*
D23*
G04 #@! TO.C,U2*
X75685000Y-68099996D03*
X75685000Y-69049996D03*
X75685000Y-69999996D03*
X77885000Y-69999996D03*
X77885000Y-68099996D03*
G04 #@! TD*
D16*
G04 #@! TO.C,R8*
X81169346Y-58470654D03*
X81169346Y-59490654D03*
G04 #@! TD*
D13*
G04 #@! TO.C,C13*
X64836250Y-66473750D03*
X64836250Y-67433750D03*
G04 #@! TD*
D24*
G04 #@! TO.C,U1*
X106625000Y-59975000D03*
X105125000Y-59975000D03*
X103625000Y-59975000D03*
X102125000Y-59975000D03*
X100625000Y-59975000D03*
X99125000Y-59975000D03*
X97625000Y-59975000D03*
X96125000Y-59975000D03*
X94625000Y-59975000D03*
X93125000Y-59975000D03*
X91625000Y-59975000D03*
X90125000Y-59975000D03*
X88625000Y-59975000D03*
X87125000Y-59975000D03*
X85625000Y-59975000D03*
X84125000Y-59975000D03*
D25*
X83375000Y-61850000D03*
X83375000Y-63350000D03*
X83375000Y-64850000D03*
X83375000Y-66350000D03*
X83375000Y-67850000D03*
X83375000Y-69350000D03*
X83375000Y-70850000D03*
X83375000Y-72350000D03*
X83375000Y-73850000D03*
X83375000Y-75350000D03*
D24*
X84025000Y-77225000D03*
X85525000Y-77225000D03*
X87025000Y-77225000D03*
X88525000Y-77225000D03*
X90025000Y-77225000D03*
X91525000Y-77225000D03*
X93025000Y-77225000D03*
X94525000Y-77225000D03*
X96025000Y-77225000D03*
X97525000Y-77225000D03*
X99025000Y-77225000D03*
X100525000Y-77225000D03*
X102025000Y-77225000D03*
X103625000Y-77225000D03*
X105125000Y-77225000D03*
X106525000Y-77225000D03*
D26*
X98585000Y-67410000D03*
G04 #@! TD*
D11*
G04 #@! TO.C,C8*
X66780000Y-77000000D03*
X65820000Y-77000000D03*
G04 #@! TD*
D27*
G04 #@! TO.C,D2*
X71925000Y-73000000D03*
X69825000Y-73000000D03*
G04 #@! TD*
D28*
G04 #@! TO.C,U3*
X74552143Y-58796075D03*
X73602143Y-58796075D03*
X72652143Y-58796075D03*
X72652143Y-61416075D03*
X74552143Y-61416075D03*
G04 #@! TD*
D29*
G04 #@! TO.C,SW1*
X104825000Y-83325000D03*
X104825000Y-79925000D03*
G04 #@! TD*
D30*
G04 #@! TO.C,U4*
X67725006Y-73617497D03*
X65825006Y-73617497D03*
X66775006Y-75617497D03*
G04 #@! TD*
D22*
G04 #@! TO.C,R9*
X63215000Y-73425000D03*
X64235000Y-73425000D03*
G04 #@! TD*
D13*
G04 #@! TO.C,C10*
X80094346Y-58500654D03*
X80094346Y-59460654D03*
G04 #@! TD*
G04 #@! TO.C,C6*
X79555000Y-68109996D03*
X79555000Y-69069996D03*
G04 #@! TD*
D22*
G04 #@! TO.C,R10*
X63240000Y-74850000D03*
X64260000Y-74850000D03*
G04 #@! TD*
D31*
G04 #@! TO.C,U6*
X62086250Y-67778750D03*
X62086250Y-67128750D03*
X62086250Y-66478750D03*
X62086250Y-65828750D03*
X63686250Y-65828750D03*
X63686250Y-66478750D03*
X63686250Y-67128750D03*
X63686250Y-67778750D03*
G04 #@! TD*
D13*
G04 #@! TO.C,C1*
X102400000Y-82045000D03*
X102400000Y-83005000D03*
G04 #@! TD*
D22*
G04 #@! TO.C,R3*
X77615000Y-76150000D03*
X78635000Y-76150000D03*
G04 #@! TD*
D32*
G04 #@! TO.C,TH1*
X69987500Y-75250000D03*
X71812500Y-75250000D03*
G04 #@! TD*
D33*
G04 #@! TO.C,C7*
X72661078Y-56910000D03*
X71111078Y-56910000D03*
G04 #@! TD*
D34*
G04 #@! TO.C,U5*
X63081668Y-61627498D03*
D35*
X61906668Y-60877498D03*
X61906668Y-61377498D03*
X61906668Y-61877498D03*
X61906668Y-62377498D03*
X64256668Y-62377498D03*
X64256668Y-61877498D03*
X64256668Y-61377498D03*
X64256668Y-60877498D03*
G04 #@! TD*
D13*
G04 #@! TO.C,C3*
X78775000Y-65170000D03*
X78775000Y-66130000D03*
G04 #@! TD*
D14*
G04 #@! TO.C,R1*
X102425000Y-80860000D03*
X102425000Y-79840000D03*
G04 #@! TD*
D30*
G04 #@! TO.C,Q1*
X70225000Y-70950000D03*
X72125000Y-70950000D03*
X71175000Y-68950000D03*
G04 #@! TD*
D36*
G04 #@! TO.C,C9*
X65818998Y-72088511D03*
X66778998Y-72088511D03*
G04 #@! TD*
D37*
G04 #@! TO.C,J3*
X71575000Y-78055000D03*
X72375000Y-78055000D03*
X73675000Y-78055000D03*
X74675000Y-78055000D03*
X75175000Y-78055000D03*
X76175000Y-78055000D03*
X77475000Y-78055000D03*
X78275000Y-78055000D03*
X77975000Y-78055000D03*
X77175000Y-78055000D03*
X76675000Y-78055000D03*
X75675000Y-78055000D03*
X74175000Y-78055000D03*
X73175000Y-78055000D03*
X72675000Y-78055000D03*
X71875000Y-78055000D03*
G04 #@! TD*
M02*
