G04 #@! TF.GenerationSoftware,KiCad,Pcbnew,5.99.0-unknown-404eb535be~115~ubuntu21.04.1*
G04 #@! TF.CreationDate,2021-02-25T02:45:09+02:00*
G04 #@! TF.ProjectId,aethon,61657468-6f6e-42e6-9b69-6361645f7063,rev?*
G04 #@! TF.SameCoordinates,Original*
G04 #@! TF.FileFunction,Other,Comment*
%FSLAX46Y46*%
G04 Gerber Fmt 4.6, Leading zero omitted, Abs format (unit mm)*
G04 Created by KiCad (PCBNEW 5.99.0-unknown-404eb535be~115~ubuntu21.04.1) date 2021-02-25 02:45:09*
%MOMM*%
%LPD*%
G01*
G04 APERTURE LIST*
G04 #@! TA.AperFunction,Profile*
%ADD10C,0.050000*%
G04 #@! TD*
%ADD11C,0.150000*%
G04 APERTURE END LIST*
D10*
X59325000Y-53150000D02*
X107600000Y-53150000D01*
X107600000Y-53150000D02*
X107600000Y-84625000D01*
X107600000Y-84625000D02*
X59325000Y-84625000D01*
X59325000Y-84625000D02*
X59325000Y-53150000D01*
D11*
G04 #@! TO.C,U1*
X122844761Y-80742857D02*
X120844761Y-80742857D01*
X122844761Y-79600000D02*
X121701904Y-80457142D01*
X120844761Y-79600000D02*
X121987619Y-80742857D01*
X121797142Y-78742857D02*
X121797142Y-78076190D01*
X122844761Y-77790476D02*
X122844761Y-78742857D01*
X120844761Y-78742857D01*
X120844761Y-77790476D01*
X121797142Y-76933333D02*
X121797142Y-76266666D01*
X122844761Y-75980952D02*
X122844761Y-76933333D01*
X120844761Y-76933333D01*
X120844761Y-75980952D01*
X122844761Y-75123809D02*
X120844761Y-75123809D01*
X120844761Y-74361904D01*
X120940000Y-74171428D01*
X121035238Y-74076190D01*
X121225714Y-73980952D01*
X121511428Y-73980952D01*
X121701904Y-74076190D01*
X121797142Y-74171428D01*
X121892380Y-74361904D01*
X121892380Y-75123809D01*
X122082857Y-73123809D02*
X122082857Y-71600000D01*
X120844761Y-70266666D02*
X120844761Y-69885714D01*
X120940000Y-69695238D01*
X121130476Y-69504761D01*
X121511428Y-69409523D01*
X122178095Y-69409523D01*
X122559047Y-69504761D01*
X122749523Y-69695238D01*
X122844761Y-69885714D01*
X122844761Y-70266666D01*
X122749523Y-70457142D01*
X122559047Y-70647619D01*
X122178095Y-70742857D01*
X121511428Y-70742857D01*
X121130476Y-70647619D01*
X120940000Y-70457142D01*
X120844761Y-70266666D01*
X120844761Y-68552380D02*
X122463809Y-68552380D01*
X122654285Y-68457142D01*
X122749523Y-68361904D01*
X122844761Y-68171428D01*
X122844761Y-67790476D01*
X122749523Y-67600000D01*
X122654285Y-67504761D01*
X122463809Y-67409523D01*
X120844761Y-67409523D01*
X120844761Y-66742857D02*
X120844761Y-65600000D01*
X122844761Y-66171428D02*
X120844761Y-66171428D01*
X120844761Y-63600000D02*
X120844761Y-62266666D01*
X122844761Y-63600000D01*
X122844761Y-62266666D01*
X120844761Y-61123809D02*
X120844761Y-60742857D01*
X120940000Y-60552380D01*
X121130476Y-60361904D01*
X121511428Y-60266666D01*
X122178095Y-60266666D01*
X122559047Y-60361904D01*
X122749523Y-60552380D01*
X122844761Y-60742857D01*
X122844761Y-61123809D01*
X122749523Y-61314285D01*
X122559047Y-61504761D01*
X122178095Y-61600000D01*
X121511428Y-61600000D01*
X121130476Y-61504761D01*
X120940000Y-61314285D01*
X120844761Y-61123809D01*
X122844761Y-59409523D02*
X120844761Y-59409523D01*
X122844761Y-58266666D01*
X120844761Y-58266666D01*
X121797142Y-57314285D02*
X121797142Y-56647619D01*
X122844761Y-56361904D02*
X122844761Y-57314285D01*
X120844761Y-57314285D01*
X120844761Y-56361904D01*
X111208333Y-72439285D02*
X111208333Y-71844047D01*
X111565476Y-72558333D02*
X110315476Y-72141666D01*
X111565476Y-71725000D01*
X111565476Y-71308333D02*
X110315476Y-71308333D01*
X111565476Y-70594047D01*
X110315476Y-70594047D01*
X110315476Y-70177380D02*
X110315476Y-69463095D01*
X111565476Y-69820238D02*
X110315476Y-69820238D01*
X110910714Y-69046428D02*
X110910714Y-68629761D01*
X111565476Y-68451190D02*
X111565476Y-69046428D01*
X110315476Y-69046428D01*
X110315476Y-68451190D01*
X111565476Y-67915476D02*
X110315476Y-67915476D01*
X111565476Y-67201190D01*
X110315476Y-67201190D01*
X111565476Y-66605952D02*
X110315476Y-66605952D01*
X111565476Y-65891666D01*
X110315476Y-65891666D01*
X111208333Y-65355952D02*
X111208333Y-64760714D01*
X111565476Y-65475000D02*
X110315476Y-65058333D01*
X111565476Y-64641666D01*
G04 #@! TO.C,H1*
X64325000Y-82125000D02*
G75*
G03*
X64325000Y-82125000I-2200000J0D01*
G01*
G04 #@! TO.C,H2*
X107250000Y-55675000D02*
G75*
G03*
X107250000Y-55675000I-2200000J0D01*
G01*
G04 #@! TD*
M02*
