G04 #@! TF.GenerationSoftware,KiCad,Pcbnew,5.99.0-unknown-404eb535be~115~ubuntu21.04.1*
G04 #@! TF.CreationDate,2021-02-25T02:45:08+02:00*
G04 #@! TF.ProjectId,aethon,61657468-6f6e-42e6-9b69-6361645f7063,rev?*
G04 #@! TF.SameCoordinates,Original*
G04 #@! TF.FileFunction,Legend,Top*
G04 #@! TF.FilePolarity,Positive*
%FSLAX46Y46*%
G04 Gerber Fmt 4.6, Leading zero omitted, Abs format (unit mm)*
G04 Created by KiCad (PCBNEW 5.99.0-unknown-404eb535be~115~ubuntu21.04.1) date 2021-02-25 02:45:08*
%MOMM*%
%LPD*%
G01*
G04 APERTURE LIST*
G04 #@! TA.AperFunction,Profile*
%ADD10C,0.050000*%
G04 #@! TD*
%ADD11C,0.150000*%
%ADD12C,0.120000*%
%ADD13C,0.100000*%
G04 APERTURE END LIST*
D10*
X59325000Y-53150000D02*
X107600000Y-53150000D01*
X107600000Y-53150000D02*
X107600000Y-84625000D01*
X107600000Y-84625000D02*
X59325000Y-84625000D01*
X59325000Y-84625000D02*
X59325000Y-53150000D01*
D11*
X98410714Y-54752380D02*
X98410714Y-53752380D01*
X98648809Y-53752380D01*
X98791666Y-53800000D01*
X98886904Y-53895238D01*
X98934523Y-53990476D01*
X98982142Y-54180952D01*
X98982142Y-54323809D01*
X98934523Y-54514285D01*
X98886904Y-54609523D01*
X98791666Y-54704761D01*
X98648809Y-54752380D01*
X98410714Y-54752380D01*
X99744047Y-54228571D02*
X99410714Y-54228571D01*
X99410714Y-54752380D02*
X99410714Y-53752380D01*
X99886904Y-53752380D01*
X100267857Y-53752380D02*
X100267857Y-54561904D01*
X100315476Y-54657142D01*
X100363095Y-54704761D01*
X100458333Y-54752380D01*
X100648809Y-54752380D01*
X100744047Y-54704761D01*
X100791666Y-54657142D01*
X100839285Y-54561904D01*
X100839285Y-53752380D01*
G04 #@! TO.C,C12*
X62507142Y-70682142D02*
X62459523Y-70729761D01*
X62316666Y-70777380D01*
X62221428Y-70777380D01*
X62078571Y-70729761D01*
X61983333Y-70634523D01*
X61935714Y-70539285D01*
X61888095Y-70348809D01*
X61888095Y-70205952D01*
X61935714Y-70015476D01*
X61983333Y-69920238D01*
X62078571Y-69825000D01*
X62221428Y-69777380D01*
X62316666Y-69777380D01*
X62459523Y-69825000D01*
X62507142Y-69872619D01*
X63459523Y-70777380D02*
X62888095Y-70777380D01*
X63173809Y-70777380D02*
X63173809Y-69777380D01*
X63078571Y-69920238D01*
X62983333Y-70015476D01*
X62888095Y-70063095D01*
X63840476Y-69872619D02*
X63888095Y-69825000D01*
X63983333Y-69777380D01*
X64221428Y-69777380D01*
X64316666Y-69825000D01*
X64364285Y-69872619D01*
X64411904Y-69967857D01*
X64411904Y-70063095D01*
X64364285Y-70205952D01*
X63792857Y-70777380D01*
X64411904Y-70777380D01*
G04 #@! TO.C,C11*
X67682142Y-61567857D02*
X67729761Y-61615476D01*
X67777380Y-61758333D01*
X67777380Y-61853571D01*
X67729761Y-61996428D01*
X67634523Y-62091666D01*
X67539285Y-62139285D01*
X67348809Y-62186904D01*
X67205952Y-62186904D01*
X67015476Y-62139285D01*
X66920238Y-62091666D01*
X66825000Y-61996428D01*
X66777380Y-61853571D01*
X66777380Y-61758333D01*
X66825000Y-61615476D01*
X66872619Y-61567857D01*
X67777380Y-60615476D02*
X67777380Y-61186904D01*
X67777380Y-60901190D02*
X66777380Y-60901190D01*
X66920238Y-60996428D01*
X67015476Y-61091666D01*
X67063095Y-61186904D01*
X67777380Y-59663095D02*
X67777380Y-60234523D01*
X67777380Y-59948809D02*
X66777380Y-59948809D01*
X66920238Y-60044047D01*
X67015476Y-60139285D01*
X67063095Y-60234523D01*
G04 #@! TO.C,TP3*
X69313095Y-64302380D02*
X69884523Y-64302380D01*
X69598809Y-65302380D02*
X69598809Y-64302380D01*
X70217857Y-65302380D02*
X70217857Y-64302380D01*
X70598809Y-64302380D01*
X70694047Y-64350000D01*
X70741666Y-64397619D01*
X70789285Y-64492857D01*
X70789285Y-64635714D01*
X70741666Y-64730952D01*
X70694047Y-64778571D01*
X70598809Y-64826190D01*
X70217857Y-64826190D01*
X71122619Y-64302380D02*
X71741666Y-64302380D01*
X71408333Y-64683333D01*
X71551190Y-64683333D01*
X71646428Y-64730952D01*
X71694047Y-64778571D01*
X71741666Y-64873809D01*
X71741666Y-65111904D01*
X71694047Y-65207142D01*
X71646428Y-65254761D01*
X71551190Y-65302380D01*
X71265476Y-65302380D01*
X71170238Y-65254761D01*
X71122619Y-65207142D01*
G04 #@! TO.C,C4*
X72958333Y-67182142D02*
X72910714Y-67229761D01*
X72767857Y-67277380D01*
X72672619Y-67277380D01*
X72529761Y-67229761D01*
X72434523Y-67134523D01*
X72386904Y-67039285D01*
X72339285Y-66848809D01*
X72339285Y-66705952D01*
X72386904Y-66515476D01*
X72434523Y-66420238D01*
X72529761Y-66325000D01*
X72672619Y-66277380D01*
X72767857Y-66277380D01*
X72910714Y-66325000D01*
X72958333Y-66372619D01*
X73815476Y-66610714D02*
X73815476Y-67277380D01*
X73577380Y-66229761D02*
X73339285Y-66944047D01*
X73958333Y-66944047D01*
G04 #@! TO.C,R2*
X75302380Y-74416666D02*
X74826190Y-74750000D01*
X75302380Y-74988095D02*
X74302380Y-74988095D01*
X74302380Y-74607142D01*
X74350000Y-74511904D01*
X74397619Y-74464285D01*
X74492857Y-74416666D01*
X74635714Y-74416666D01*
X74730952Y-74464285D01*
X74778571Y-74511904D01*
X74826190Y-74607142D01*
X74826190Y-74988095D01*
X74397619Y-74035714D02*
X74350000Y-73988095D01*
X74302380Y-73892857D01*
X74302380Y-73654761D01*
X74350000Y-73559523D01*
X74397619Y-73511904D01*
X74492857Y-73464285D01*
X74588095Y-73464285D01*
X74730952Y-73511904D01*
X75302380Y-74083333D01*
X75302380Y-73464285D01*
G04 #@! TO.C,D3*
X72980482Y-65707380D02*
X72980482Y-64707380D01*
X73218578Y-64707380D01*
X73361435Y-64755000D01*
X73456673Y-64850238D01*
X73504292Y-64945476D01*
X73551911Y-65135952D01*
X73551911Y-65278809D01*
X73504292Y-65469285D01*
X73456673Y-65564523D01*
X73361435Y-65659761D01*
X73218578Y-65707380D01*
X72980482Y-65707380D01*
X73885244Y-64707380D02*
X74504292Y-64707380D01*
X74170958Y-65088333D01*
X74313816Y-65088333D01*
X74409054Y-65135952D01*
X74456673Y-65183571D01*
X74504292Y-65278809D01*
X74504292Y-65516904D01*
X74456673Y-65612142D01*
X74409054Y-65659761D01*
X74313816Y-65707380D01*
X74028101Y-65707380D01*
X73932863Y-65659761D01*
X73885244Y-65612142D01*
G04 #@! TO.C,R7*
X78327380Y-59091666D02*
X77851190Y-59425000D01*
X78327380Y-59663095D02*
X77327380Y-59663095D01*
X77327380Y-59282142D01*
X77375000Y-59186904D01*
X77422619Y-59139285D01*
X77517857Y-59091666D01*
X77660714Y-59091666D01*
X77755952Y-59139285D01*
X77803571Y-59186904D01*
X77851190Y-59282142D01*
X77851190Y-59663095D01*
X77327380Y-58758333D02*
X77327380Y-58091666D01*
X78327380Y-58520238D01*
G04 #@! TO.C,R5*
X77752380Y-61116666D02*
X77276190Y-61450000D01*
X77752380Y-61688095D02*
X76752380Y-61688095D01*
X76752380Y-61307142D01*
X76800000Y-61211904D01*
X76847619Y-61164285D01*
X76942857Y-61116666D01*
X77085714Y-61116666D01*
X77180952Y-61164285D01*
X77228571Y-61211904D01*
X77276190Y-61307142D01*
X77276190Y-61688095D01*
X76752380Y-60211904D02*
X76752380Y-60688095D01*
X77228571Y-60735714D01*
X77180952Y-60688095D01*
X77133333Y-60592857D01*
X77133333Y-60354761D01*
X77180952Y-60259523D01*
X77228571Y-60211904D01*
X77323809Y-60164285D01*
X77561904Y-60164285D01*
X77657142Y-60211904D01*
X77704761Y-60259523D01*
X77752380Y-60354761D01*
X77752380Y-60592857D01*
X77704761Y-60688095D01*
X77657142Y-60735714D01*
G04 #@! TO.C,C5*
X69882142Y-60291666D02*
X69929761Y-60339285D01*
X69977380Y-60482142D01*
X69977380Y-60577380D01*
X69929761Y-60720238D01*
X69834523Y-60815476D01*
X69739285Y-60863095D01*
X69548809Y-60910714D01*
X69405952Y-60910714D01*
X69215476Y-60863095D01*
X69120238Y-60815476D01*
X69025000Y-60720238D01*
X68977380Y-60577380D01*
X68977380Y-60482142D01*
X69025000Y-60339285D01*
X69072619Y-60291666D01*
X68977380Y-59386904D02*
X68977380Y-59863095D01*
X69453571Y-59910714D01*
X69405952Y-59863095D01*
X69358333Y-59767857D01*
X69358333Y-59529761D01*
X69405952Y-59434523D01*
X69453571Y-59386904D01*
X69548809Y-59339285D01*
X69786904Y-59339285D01*
X69882142Y-59386904D01*
X69929761Y-59434523D01*
X69977380Y-59529761D01*
X69977380Y-59767857D01*
X69929761Y-59863095D01*
X69882142Y-59910714D01*
G04 #@! TO.C,TP4*
X65463095Y-80202380D02*
X66034523Y-80202380D01*
X65748809Y-81202380D02*
X65748809Y-80202380D01*
X66367857Y-81202380D02*
X66367857Y-80202380D01*
X66748809Y-80202380D01*
X66844047Y-80250000D01*
X66891666Y-80297619D01*
X66939285Y-80392857D01*
X66939285Y-80535714D01*
X66891666Y-80630952D01*
X66844047Y-80678571D01*
X66748809Y-80726190D01*
X66367857Y-80726190D01*
X67796428Y-80535714D02*
X67796428Y-81202380D01*
X67558333Y-80154761D02*
X67320238Y-80869047D01*
X67939285Y-80869047D01*
G04 #@! TO.C,R6*
X80508333Y-56752380D02*
X80175000Y-56276190D01*
X79936904Y-56752380D02*
X79936904Y-55752380D01*
X80317857Y-55752380D01*
X80413095Y-55800000D01*
X80460714Y-55847619D01*
X80508333Y-55942857D01*
X80508333Y-56085714D01*
X80460714Y-56180952D01*
X80413095Y-56228571D01*
X80317857Y-56276190D01*
X79936904Y-56276190D01*
X81365476Y-55752380D02*
X81175000Y-55752380D01*
X81079761Y-55800000D01*
X81032142Y-55847619D01*
X80936904Y-55990476D01*
X80889285Y-56180952D01*
X80889285Y-56561904D01*
X80936904Y-56657142D01*
X80984523Y-56704761D01*
X81079761Y-56752380D01*
X81270238Y-56752380D01*
X81365476Y-56704761D01*
X81413095Y-56657142D01*
X81460714Y-56561904D01*
X81460714Y-56323809D01*
X81413095Y-56228571D01*
X81365476Y-56180952D01*
X81270238Y-56133333D01*
X81079761Y-56133333D01*
X80984523Y-56180952D01*
X80936904Y-56228571D01*
X80889285Y-56323809D01*
G04 #@! TO.C,C2*
X78022142Y-62866666D02*
X78069761Y-62914285D01*
X78117380Y-63057142D01*
X78117380Y-63152380D01*
X78069761Y-63295238D01*
X77974523Y-63390476D01*
X77879285Y-63438095D01*
X77688809Y-63485714D01*
X77545952Y-63485714D01*
X77355476Y-63438095D01*
X77260238Y-63390476D01*
X77165000Y-63295238D01*
X77117380Y-63152380D01*
X77117380Y-63057142D01*
X77165000Y-62914285D01*
X77212619Y-62866666D01*
X77212619Y-62485714D02*
X77165000Y-62438095D01*
X77117380Y-62342857D01*
X77117380Y-62104761D01*
X77165000Y-62009523D01*
X77212619Y-61961904D01*
X77307857Y-61914285D01*
X77403095Y-61914285D01*
X77545952Y-61961904D01*
X78117380Y-62533333D01*
X78117380Y-61914285D01*
G04 #@! TO.C,R4*
X75483333Y-63477380D02*
X75150000Y-63001190D01*
X74911904Y-63477380D02*
X74911904Y-62477380D01*
X75292857Y-62477380D01*
X75388095Y-62525000D01*
X75435714Y-62572619D01*
X75483333Y-62667857D01*
X75483333Y-62810714D01*
X75435714Y-62905952D01*
X75388095Y-62953571D01*
X75292857Y-63001190D01*
X74911904Y-63001190D01*
X76340476Y-62810714D02*
X76340476Y-63477380D01*
X76102380Y-62429761D02*
X75864285Y-63144047D01*
X76483333Y-63144047D01*
G04 #@! TO.C,J2*
X65912380Y-56783333D02*
X66626666Y-56783333D01*
X66769523Y-56830952D01*
X66864761Y-56926190D01*
X66912380Y-57069047D01*
X66912380Y-57164285D01*
X66007619Y-56354761D02*
X65960000Y-56307142D01*
X65912380Y-56211904D01*
X65912380Y-55973809D01*
X65960000Y-55878571D01*
X66007619Y-55830952D01*
X66102857Y-55783333D01*
X66198095Y-55783333D01*
X66340952Y-55830952D01*
X66912380Y-56402380D01*
X66912380Y-55783333D01*
G04 #@! TO.C,TP6*
X66863095Y-62827380D02*
X67434523Y-62827380D01*
X67148809Y-63827380D02*
X67148809Y-62827380D01*
X67767857Y-63827380D02*
X67767857Y-62827380D01*
X68148809Y-62827380D01*
X68244047Y-62875000D01*
X68291666Y-62922619D01*
X68339285Y-63017857D01*
X68339285Y-63160714D01*
X68291666Y-63255952D01*
X68244047Y-63303571D01*
X68148809Y-63351190D01*
X67767857Y-63351190D01*
X69196428Y-62827380D02*
X69005952Y-62827380D01*
X68910714Y-62875000D01*
X68863095Y-62922619D01*
X68767857Y-63065476D01*
X68720238Y-63255952D01*
X68720238Y-63636904D01*
X68767857Y-63732142D01*
X68815476Y-63779761D01*
X68910714Y-63827380D01*
X69101190Y-63827380D01*
X69196428Y-63779761D01*
X69244047Y-63732142D01*
X69291666Y-63636904D01*
X69291666Y-63398809D01*
X69244047Y-63303571D01*
X69196428Y-63255952D01*
X69101190Y-63208333D01*
X68910714Y-63208333D01*
X68815476Y-63255952D01*
X68767857Y-63303571D01*
X68720238Y-63398809D01*
G04 #@! TO.C,U2*
X75638095Y-66002380D02*
X75638095Y-66811904D01*
X75685714Y-66907142D01*
X75733333Y-66954761D01*
X75828571Y-67002380D01*
X76019047Y-67002380D01*
X76114285Y-66954761D01*
X76161904Y-66907142D01*
X76209523Y-66811904D01*
X76209523Y-66002380D01*
X76638095Y-66097619D02*
X76685714Y-66050000D01*
X76780952Y-66002380D01*
X77019047Y-66002380D01*
X77114285Y-66050000D01*
X77161904Y-66097619D01*
X77209523Y-66192857D01*
X77209523Y-66288095D01*
X77161904Y-66430952D01*
X76590476Y-67002380D01*
X77209523Y-67002380D01*
G04 #@! TO.C,R8*
X81626726Y-61047320D02*
X81150536Y-61380654D01*
X81626726Y-61618749D02*
X80626726Y-61618749D01*
X80626726Y-61237796D01*
X80674346Y-61142558D01*
X80721965Y-61094939D01*
X80817203Y-61047320D01*
X80960060Y-61047320D01*
X81055298Y-61094939D01*
X81102917Y-61142558D01*
X81150536Y-61237796D01*
X81150536Y-61618749D01*
X81055298Y-60475892D02*
X81007679Y-60571130D01*
X80960060Y-60618749D01*
X80864822Y-60666368D01*
X80817203Y-60666368D01*
X80721965Y-60618749D01*
X80674346Y-60571130D01*
X80626726Y-60475892D01*
X80626726Y-60285415D01*
X80674346Y-60190177D01*
X80721965Y-60142558D01*
X80817203Y-60094939D01*
X80864822Y-60094939D01*
X80960060Y-60142558D01*
X81007679Y-60190177D01*
X81055298Y-60285415D01*
X81055298Y-60475892D01*
X81102917Y-60571130D01*
X81150536Y-60618749D01*
X81245774Y-60666368D01*
X81436250Y-60666368D01*
X81531488Y-60618749D01*
X81579107Y-60571130D01*
X81626726Y-60475892D01*
X81626726Y-60285415D01*
X81579107Y-60190177D01*
X81531488Y-60142558D01*
X81436250Y-60094939D01*
X81245774Y-60094939D01*
X81150536Y-60142558D01*
X81102917Y-60190177D01*
X81055298Y-60285415D01*
G04 #@! TO.C,C13*
X66607142Y-67942857D02*
X66654761Y-67990476D01*
X66702380Y-68133333D01*
X66702380Y-68228571D01*
X66654761Y-68371428D01*
X66559523Y-68466666D01*
X66464285Y-68514285D01*
X66273809Y-68561904D01*
X66130952Y-68561904D01*
X65940476Y-68514285D01*
X65845238Y-68466666D01*
X65750000Y-68371428D01*
X65702380Y-68228571D01*
X65702380Y-68133333D01*
X65750000Y-67990476D01*
X65797619Y-67942857D01*
X66702380Y-66990476D02*
X66702380Y-67561904D01*
X66702380Y-67276190D02*
X65702380Y-67276190D01*
X65845238Y-67371428D01*
X65940476Y-67466666D01*
X65988095Y-67561904D01*
X65702380Y-66657142D02*
X65702380Y-66038095D01*
X66083333Y-66371428D01*
X66083333Y-66228571D01*
X66130952Y-66133333D01*
X66178571Y-66085714D01*
X66273809Y-66038095D01*
X66511904Y-66038095D01*
X66607142Y-66085714D01*
X66654761Y-66133333D01*
X66702380Y-66228571D01*
X66702380Y-66514285D01*
X66654761Y-66609523D01*
X66607142Y-66657142D01*
G04 #@! TO.C,C8*
X68133333Y-77407142D02*
X68085714Y-77454761D01*
X67942857Y-77502380D01*
X67847619Y-77502380D01*
X67704761Y-77454761D01*
X67609523Y-77359523D01*
X67561904Y-77264285D01*
X67514285Y-77073809D01*
X67514285Y-76930952D01*
X67561904Y-76740476D01*
X67609523Y-76645238D01*
X67704761Y-76550000D01*
X67847619Y-76502380D01*
X67942857Y-76502380D01*
X68085714Y-76550000D01*
X68133333Y-76597619D01*
X68704761Y-76930952D02*
X68609523Y-76883333D01*
X68561904Y-76835714D01*
X68514285Y-76740476D01*
X68514285Y-76692857D01*
X68561904Y-76597619D01*
X68609523Y-76550000D01*
X68704761Y-76502380D01*
X68895238Y-76502380D01*
X68990476Y-76550000D01*
X69038095Y-76597619D01*
X69085714Y-76692857D01*
X69085714Y-76740476D01*
X69038095Y-76835714D01*
X68990476Y-76883333D01*
X68895238Y-76930952D01*
X68704761Y-76930952D01*
X68609523Y-76978571D01*
X68561904Y-77026190D01*
X68514285Y-77121428D01*
X68514285Y-77311904D01*
X68561904Y-77407142D01*
X68609523Y-77454761D01*
X68704761Y-77502380D01*
X68895238Y-77502380D01*
X68990476Y-77454761D01*
X69038095Y-77407142D01*
X69085714Y-77311904D01*
X69085714Y-77121428D01*
X69038095Y-77026190D01*
X68990476Y-76978571D01*
X68895238Y-76930952D01*
G04 #@! TO.C,D2*
X72811904Y-73027380D02*
X72811904Y-72027380D01*
X73050000Y-72027380D01*
X73192857Y-72075000D01*
X73288095Y-72170238D01*
X73335714Y-72265476D01*
X73383333Y-72455952D01*
X73383333Y-72598809D01*
X73335714Y-72789285D01*
X73288095Y-72884523D01*
X73192857Y-72979761D01*
X73050000Y-73027380D01*
X72811904Y-73027380D01*
X73764285Y-72122619D02*
X73811904Y-72075000D01*
X73907142Y-72027380D01*
X74145238Y-72027380D01*
X74240476Y-72075000D01*
X74288095Y-72122619D01*
X74335714Y-72217857D01*
X74335714Y-72313095D01*
X74288095Y-72455952D01*
X73716666Y-73027380D01*
X74335714Y-73027380D01*
G04 #@! TO.C,U3*
X74913095Y-56502380D02*
X74913095Y-57311904D01*
X74960714Y-57407142D01*
X75008333Y-57454761D01*
X75103571Y-57502380D01*
X75294047Y-57502380D01*
X75389285Y-57454761D01*
X75436904Y-57407142D01*
X75484523Y-57311904D01*
X75484523Y-56502380D01*
X75865476Y-56502380D02*
X76484523Y-56502380D01*
X76151190Y-56883333D01*
X76294047Y-56883333D01*
X76389285Y-56930952D01*
X76436904Y-56978571D01*
X76484523Y-57073809D01*
X76484523Y-57311904D01*
X76436904Y-57407142D01*
X76389285Y-57454761D01*
X76294047Y-57502380D01*
X76008333Y-57502380D01*
X75913095Y-57454761D01*
X75865476Y-57407142D01*
G04 #@! TO.C,U4*
X67513095Y-71602380D02*
X67513095Y-72411904D01*
X67560714Y-72507142D01*
X67608333Y-72554761D01*
X67703571Y-72602380D01*
X67894047Y-72602380D01*
X67989285Y-72554761D01*
X68036904Y-72507142D01*
X68084523Y-72411904D01*
X68084523Y-71602380D01*
X68989285Y-71935714D02*
X68989285Y-72602380D01*
X68751190Y-71554761D02*
X68513095Y-72269047D01*
X69132142Y-72269047D01*
G04 #@! TO.C,R9*
X63558333Y-72707380D02*
X63225000Y-72231190D01*
X62986904Y-72707380D02*
X62986904Y-71707380D01*
X63367857Y-71707380D01*
X63463095Y-71755000D01*
X63510714Y-71802619D01*
X63558333Y-71897857D01*
X63558333Y-72040714D01*
X63510714Y-72135952D01*
X63463095Y-72183571D01*
X63367857Y-72231190D01*
X62986904Y-72231190D01*
X64034523Y-72707380D02*
X64225000Y-72707380D01*
X64320238Y-72659761D01*
X64367857Y-72612142D01*
X64463095Y-72469285D01*
X64510714Y-72278809D01*
X64510714Y-71897857D01*
X64463095Y-71802619D01*
X64415476Y-71755000D01*
X64320238Y-71707380D01*
X64129761Y-71707380D01*
X64034523Y-71755000D01*
X63986904Y-71802619D01*
X63939285Y-71897857D01*
X63939285Y-72135952D01*
X63986904Y-72231190D01*
X64034523Y-72278809D01*
X64129761Y-72326428D01*
X64320238Y-72326428D01*
X64415476Y-72278809D01*
X64463095Y-72231190D01*
X64510714Y-72135952D01*
G04 #@! TO.C,C6*
X81182142Y-69741666D02*
X81229761Y-69789285D01*
X81277380Y-69932142D01*
X81277380Y-70027380D01*
X81229761Y-70170238D01*
X81134523Y-70265476D01*
X81039285Y-70313095D01*
X80848809Y-70360714D01*
X80705952Y-70360714D01*
X80515476Y-70313095D01*
X80420238Y-70265476D01*
X80325000Y-70170238D01*
X80277380Y-70027380D01*
X80277380Y-69932142D01*
X80325000Y-69789285D01*
X80372619Y-69741666D01*
X80277380Y-68884523D02*
X80277380Y-69075000D01*
X80325000Y-69170238D01*
X80372619Y-69217857D01*
X80515476Y-69313095D01*
X80705952Y-69360714D01*
X81086904Y-69360714D01*
X81182142Y-69313095D01*
X81229761Y-69265476D01*
X81277380Y-69170238D01*
X81277380Y-68979761D01*
X81229761Y-68884523D01*
X81182142Y-68836904D01*
X81086904Y-68789285D01*
X80848809Y-68789285D01*
X80753571Y-68836904D01*
X80705952Y-68884523D01*
X80658333Y-68979761D01*
X80658333Y-69170238D01*
X80705952Y-69265476D01*
X80753571Y-69313095D01*
X80848809Y-69360714D01*
G04 #@! TO.C,R10*
X62557142Y-76582380D02*
X62223809Y-76106190D01*
X61985714Y-76582380D02*
X61985714Y-75582380D01*
X62366666Y-75582380D01*
X62461904Y-75630000D01*
X62509523Y-75677619D01*
X62557142Y-75772857D01*
X62557142Y-75915714D01*
X62509523Y-76010952D01*
X62461904Y-76058571D01*
X62366666Y-76106190D01*
X61985714Y-76106190D01*
X63509523Y-76582380D02*
X62938095Y-76582380D01*
X63223809Y-76582380D02*
X63223809Y-75582380D01*
X63128571Y-75725238D01*
X63033333Y-75820476D01*
X62938095Y-75868095D01*
X64128571Y-75582380D02*
X64223809Y-75582380D01*
X64319047Y-75630000D01*
X64366666Y-75677619D01*
X64414285Y-75772857D01*
X64461904Y-75963333D01*
X64461904Y-76201428D01*
X64414285Y-76391904D01*
X64366666Y-76487142D01*
X64319047Y-76534761D01*
X64223809Y-76582380D01*
X64128571Y-76582380D01*
X64033333Y-76534761D01*
X63985714Y-76487142D01*
X63938095Y-76391904D01*
X63890476Y-76201428D01*
X63890476Y-75963333D01*
X63938095Y-75772857D01*
X63985714Y-75677619D01*
X64033333Y-75630000D01*
X64128571Y-75582380D01*
G04 #@! TO.C,U6*
X61888095Y-64152380D02*
X61888095Y-64961904D01*
X61935714Y-65057142D01*
X61983333Y-65104761D01*
X62078571Y-65152380D01*
X62269047Y-65152380D01*
X62364285Y-65104761D01*
X62411904Y-65057142D01*
X62459523Y-64961904D01*
X62459523Y-64152380D01*
X63364285Y-64152380D02*
X63173809Y-64152380D01*
X63078571Y-64200000D01*
X63030952Y-64247619D01*
X62935714Y-64390476D01*
X62888095Y-64580952D01*
X62888095Y-64961904D01*
X62935714Y-65057142D01*
X62983333Y-65104761D01*
X63078571Y-65152380D01*
X63269047Y-65152380D01*
X63364285Y-65104761D01*
X63411904Y-65057142D01*
X63459523Y-64961904D01*
X63459523Y-64723809D01*
X63411904Y-64628571D01*
X63364285Y-64580952D01*
X63269047Y-64533333D01*
X63078571Y-64533333D01*
X62983333Y-64580952D01*
X62935714Y-64628571D01*
X62888095Y-64723809D01*
G04 #@! TO.C,C1*
X101582142Y-82641666D02*
X101629761Y-82689285D01*
X101677380Y-82832142D01*
X101677380Y-82927380D01*
X101629761Y-83070238D01*
X101534523Y-83165476D01*
X101439285Y-83213095D01*
X101248809Y-83260714D01*
X101105952Y-83260714D01*
X100915476Y-83213095D01*
X100820238Y-83165476D01*
X100725000Y-83070238D01*
X100677380Y-82927380D01*
X100677380Y-82832142D01*
X100725000Y-82689285D01*
X100772619Y-82641666D01*
X101677380Y-81689285D02*
X101677380Y-82260714D01*
X101677380Y-81975000D02*
X100677380Y-81975000D01*
X100820238Y-82070238D01*
X100915476Y-82165476D01*
X100963095Y-82260714D01*
G04 #@! TO.C,R3*
X77958333Y-75432380D02*
X77625000Y-74956190D01*
X77386904Y-75432380D02*
X77386904Y-74432380D01*
X77767857Y-74432380D01*
X77863095Y-74480000D01*
X77910714Y-74527619D01*
X77958333Y-74622857D01*
X77958333Y-74765714D01*
X77910714Y-74860952D01*
X77863095Y-74908571D01*
X77767857Y-74956190D01*
X77386904Y-74956190D01*
X78291666Y-74432380D02*
X78910714Y-74432380D01*
X78577380Y-74813333D01*
X78720238Y-74813333D01*
X78815476Y-74860952D01*
X78863095Y-74908571D01*
X78910714Y-75003809D01*
X78910714Y-75241904D01*
X78863095Y-75337142D01*
X78815476Y-75384761D01*
X78720238Y-75432380D01*
X78434523Y-75432380D01*
X78339285Y-75384761D01*
X78291666Y-75337142D01*
G04 #@! TO.C,J1*
X90416666Y-80852380D02*
X90416666Y-81566666D01*
X90369047Y-81709523D01*
X90273809Y-81804761D01*
X90130952Y-81852380D01*
X90035714Y-81852380D01*
X91416666Y-81852380D02*
X90845238Y-81852380D01*
X91130952Y-81852380D02*
X91130952Y-80852380D01*
X91035714Y-80995238D01*
X90940476Y-81090476D01*
X90845238Y-81138095D01*
G04 #@! TO.C,C7*
X70008333Y-55407142D02*
X69960714Y-55454761D01*
X69817857Y-55502380D01*
X69722619Y-55502380D01*
X69579761Y-55454761D01*
X69484523Y-55359523D01*
X69436904Y-55264285D01*
X69389285Y-55073809D01*
X69389285Y-54930952D01*
X69436904Y-54740476D01*
X69484523Y-54645238D01*
X69579761Y-54550000D01*
X69722619Y-54502380D01*
X69817857Y-54502380D01*
X69960714Y-54550000D01*
X70008333Y-54597619D01*
X70341666Y-54502380D02*
X71008333Y-54502380D01*
X70579761Y-55502380D01*
G04 #@! TO.C,U5*
X62319763Y-58829878D02*
X62319763Y-59639402D01*
X62367382Y-59734640D01*
X62415001Y-59782259D01*
X62510239Y-59829878D01*
X62700715Y-59829878D01*
X62795953Y-59782259D01*
X62843572Y-59734640D01*
X62891191Y-59639402D01*
X62891191Y-58829878D01*
X63843572Y-58829878D02*
X63367382Y-58829878D01*
X63319763Y-59306069D01*
X63367382Y-59258450D01*
X63462620Y-59210831D01*
X63700715Y-59210831D01*
X63795953Y-59258450D01*
X63843572Y-59306069D01*
X63891191Y-59401307D01*
X63891191Y-59639402D01*
X63843572Y-59734640D01*
X63795953Y-59782259D01*
X63700715Y-59829878D01*
X63462620Y-59829878D01*
X63367382Y-59782259D01*
X63319763Y-59734640D01*
G04 #@! TO.C,C3*
X77732142Y-64816666D02*
X77779761Y-64864285D01*
X77827380Y-65007142D01*
X77827380Y-65102380D01*
X77779761Y-65245238D01*
X77684523Y-65340476D01*
X77589285Y-65388095D01*
X77398809Y-65435714D01*
X77255952Y-65435714D01*
X77065476Y-65388095D01*
X76970238Y-65340476D01*
X76875000Y-65245238D01*
X76827380Y-65102380D01*
X76827380Y-65007142D01*
X76875000Y-64864285D01*
X76922619Y-64816666D01*
X76827380Y-64483333D02*
X76827380Y-63864285D01*
X77208333Y-64197619D01*
X77208333Y-64054761D01*
X77255952Y-63959523D01*
X77303571Y-63911904D01*
X77398809Y-63864285D01*
X77636904Y-63864285D01*
X77732142Y-63911904D01*
X77779761Y-63959523D01*
X77827380Y-64054761D01*
X77827380Y-64340476D01*
X77779761Y-64435714D01*
X77732142Y-64483333D01*
G04 #@! TO.C,R1*
X101727380Y-79716666D02*
X101251190Y-80050000D01*
X101727380Y-80288095D02*
X100727380Y-80288095D01*
X100727380Y-79907142D01*
X100775000Y-79811904D01*
X100822619Y-79764285D01*
X100917857Y-79716666D01*
X101060714Y-79716666D01*
X101155952Y-79764285D01*
X101203571Y-79811904D01*
X101251190Y-79907142D01*
X101251190Y-80288095D01*
X101727380Y-78764285D02*
X101727380Y-79335714D01*
X101727380Y-79050000D02*
X100727380Y-79050000D01*
X100870238Y-79145238D01*
X100965476Y-79240476D01*
X101013095Y-79335714D01*
G04 #@! TO.C,Q1*
X69379761Y-68722619D02*
X69284523Y-68675000D01*
X69189285Y-68579761D01*
X69046428Y-68436904D01*
X68951190Y-68389285D01*
X68855952Y-68389285D01*
X68903571Y-68627380D02*
X68808333Y-68579761D01*
X68713095Y-68484523D01*
X68665476Y-68294047D01*
X68665476Y-67960714D01*
X68713095Y-67770238D01*
X68808333Y-67675000D01*
X68903571Y-67627380D01*
X69094047Y-67627380D01*
X69189285Y-67675000D01*
X69284523Y-67770238D01*
X69332142Y-67960714D01*
X69332142Y-68294047D01*
X69284523Y-68484523D01*
X69189285Y-68579761D01*
X69094047Y-68627380D01*
X68903571Y-68627380D01*
X70284523Y-68627380D02*
X69713095Y-68627380D01*
X69998809Y-68627380D02*
X69998809Y-67627380D01*
X69903571Y-67770238D01*
X69808333Y-67865476D01*
X69713095Y-67913095D01*
G04 #@! TO.C,C9*
X66132331Y-71285653D02*
X66084712Y-71333272D01*
X65941855Y-71380891D01*
X65846617Y-71380891D01*
X65703759Y-71333272D01*
X65608521Y-71238034D01*
X65560902Y-71142796D01*
X65513283Y-70952320D01*
X65513283Y-70809463D01*
X65560902Y-70618987D01*
X65608521Y-70523749D01*
X65703759Y-70428511D01*
X65846617Y-70380891D01*
X65941855Y-70380891D01*
X66084712Y-70428511D01*
X66132331Y-70476130D01*
X66608521Y-71380891D02*
X66798998Y-71380891D01*
X66894236Y-71333272D01*
X66941855Y-71285653D01*
X67037093Y-71142796D01*
X67084712Y-70952320D01*
X67084712Y-70571368D01*
X67037093Y-70476130D01*
X66989474Y-70428511D01*
X66894236Y-70380891D01*
X66703759Y-70380891D01*
X66608521Y-70428511D01*
X66560902Y-70476130D01*
X66513283Y-70571368D01*
X66513283Y-70809463D01*
X66560902Y-70904701D01*
X66608521Y-70952320D01*
X66703759Y-70999939D01*
X66894236Y-70999939D01*
X66989474Y-70952320D01*
X67037093Y-70904701D01*
X67084712Y-70809463D01*
G04 #@! TO.C,J3*
X75216666Y-75477380D02*
X75216666Y-76191666D01*
X75169047Y-76334523D01*
X75073809Y-76429761D01*
X74930952Y-76477380D01*
X74835714Y-76477380D01*
X75597619Y-75477380D02*
X76216666Y-75477380D01*
X75883333Y-75858333D01*
X76026190Y-75858333D01*
X76121428Y-75905952D01*
X76169047Y-75953571D01*
X76216666Y-76048809D01*
X76216666Y-76286904D01*
X76169047Y-76382142D01*
X76121428Y-76429761D01*
X76026190Y-76477380D01*
X75740476Y-76477380D01*
X75645238Y-76429761D01*
X75597619Y-76382142D01*
D12*
G04 #@! TO.C,C12*
X63369086Y-68643750D02*
X63153414Y-68643750D01*
X63369086Y-69363750D02*
X63153414Y-69363750D01*
G04 #@! TO.C,C11*
X65331668Y-61793078D02*
X65331668Y-61511918D01*
X66351668Y-61793078D02*
X66351668Y-61511918D01*
G04 #@! TO.C,TP3*
X71611074Y-62930004D02*
G75*
G03*
X71611074Y-62930004I-700000J0D01*
G01*
G04 #@! TO.C,C4*
X73615000Y-68472160D02*
X73615000Y-68687832D01*
X74335000Y-68472160D02*
X74335000Y-68687832D01*
G04 #@! TO.C,R2*
X73295000Y-75428641D02*
X73295000Y-75121359D01*
X74055000Y-75428641D02*
X74055000Y-75121359D01*
D13*
G04 #@! TO.C,D3*
X74858578Y-64085000D02*
G75*
G03*
X74858578Y-64085000I-50000J0D01*
G01*
D12*
G04 #@! TO.C,R7*
X78639346Y-58827013D02*
X78639346Y-59134295D01*
X79399346Y-58827013D02*
X79399346Y-59134295D01*
G04 #@! TO.C,R5*
X75656078Y-61063641D02*
X75656078Y-60756359D01*
X76416078Y-61063641D02*
X76416078Y-60756359D01*
G04 #@! TO.C,Y1*
X79925000Y-64875000D02*
X79925000Y-63525000D01*
X81675000Y-64875000D02*
X81675000Y-63525000D01*
G04 #@! TO.C,C5*
X71470000Y-59953350D02*
X71470000Y-60234510D01*
X70450000Y-59953350D02*
X70450000Y-60234510D01*
G04 #@! TO.C,TP4*
X67425000Y-79025000D02*
G75*
G03*
X67425000Y-79025000I-700000J0D01*
G01*
G04 #@! TO.C,SW2*
X97975000Y-57800000D02*
X97975000Y-58100000D01*
X101275000Y-55300000D02*
X101275000Y-55600000D01*
X97975000Y-58100000D02*
X101275000Y-58100000D01*
X97975000Y-55600000D02*
X97975000Y-55300000D01*
X101275000Y-58100000D02*
X101275000Y-57800000D01*
X97975000Y-55300000D02*
X101275000Y-55300000D01*
G04 #@! TO.C,R6*
X80847987Y-57075654D02*
X80540705Y-57075654D01*
X80847987Y-57835654D02*
X80540705Y-57835654D01*
G04 #@! TO.C,C2*
X78465000Y-62807836D02*
X78465000Y-62592164D01*
X79185000Y-62807836D02*
X79185000Y-62592164D01*
G04 #@! TO.C,R4*
X73557437Y-63390000D02*
X73864719Y-63390000D01*
X73557437Y-62630000D02*
X73864719Y-62630000D01*
G04 #@! TO.C,J2*
X65460000Y-55390000D02*
X65460000Y-56450000D01*
X63400000Y-57510000D02*
X61340000Y-57510000D01*
X64400000Y-55390000D02*
X65460000Y-55390000D01*
X61340000Y-55390000D02*
X61340000Y-57510000D01*
X63400000Y-55390000D02*
X61340000Y-55390000D01*
X63400000Y-55390000D02*
X63400000Y-57510000D01*
G04 #@! TO.C,TP6*
X66500000Y-64675000D02*
G75*
G03*
X66500000Y-64675000I-700000J0D01*
G01*
G04 #@! TO.C,U2*
X77685000Y-67439996D02*
X75235000Y-67439996D01*
X75885000Y-70659996D02*
X77685000Y-70659996D01*
G04 #@! TO.C,R8*
X80789346Y-58827013D02*
X80789346Y-59134295D01*
X81549346Y-58827013D02*
X81549346Y-59134295D01*
G04 #@! TO.C,C13*
X64476250Y-66845914D02*
X64476250Y-67061586D01*
X65196250Y-66845914D02*
X65196250Y-67061586D01*
G04 #@! TO.C,U1*
X107875000Y-59490000D02*
X107875000Y-59075000D01*
X83050000Y-59480000D02*
X83050000Y-61140000D01*
X107880000Y-77730000D02*
X114300000Y-77730000D01*
X107875000Y-59490000D02*
X114300000Y-59475000D01*
X83310000Y-77720000D02*
X83050000Y-77720000D01*
X83050000Y-77720000D02*
X83050000Y-76060000D01*
X114300000Y-59475000D02*
X114300000Y-77730000D01*
X83410000Y-59480000D02*
X83050000Y-59480000D01*
G04 #@! TO.C,C8*
X66407836Y-77360000D02*
X66192164Y-77360000D01*
X66407836Y-76640000D02*
X66192164Y-76640000D01*
G04 #@! TO.C,D2*
X72375000Y-73850000D02*
X72375000Y-72150000D01*
X72375000Y-72150000D02*
X69825000Y-72150000D01*
X72375000Y-73850000D02*
X69825000Y-73850000D01*
G04 #@! TO.C,U3*
X72042143Y-59226075D02*
X72042143Y-60986075D01*
X75112143Y-60986075D02*
X75112143Y-58556075D01*
G04 #@! TO.C,SW1*
X103725000Y-83275000D02*
X103425000Y-83275000D01*
X106225000Y-79975000D02*
X105925000Y-79975000D01*
X103425000Y-79975000D02*
X103725000Y-79975000D01*
X103425000Y-83275000D02*
X103425000Y-79975000D01*
X106225000Y-83275000D02*
X106225000Y-79975000D01*
X105925000Y-83275000D02*
X106225000Y-83275000D01*
G04 #@! TO.C,U4*
X68355006Y-75377497D02*
X68355006Y-73217497D01*
X65195006Y-75377497D02*
X66125006Y-75377497D01*
X68355006Y-75377497D02*
X67425006Y-75377497D01*
X65195006Y-75377497D02*
X65195006Y-73917497D01*
G04 #@! TO.C,R9*
X63571359Y-73805000D02*
X63878641Y-73805000D01*
X63571359Y-73045000D02*
X63878641Y-73045000D01*
G04 #@! TO.C,C10*
X79734346Y-58872818D02*
X79734346Y-59088490D01*
X80454346Y-58872818D02*
X80454346Y-59088490D01*
G04 #@! TO.C,C6*
X79195000Y-68482160D02*
X79195000Y-68697832D01*
X79915000Y-68482160D02*
X79915000Y-68697832D01*
G04 #@! TO.C,R10*
X63596359Y-75230000D02*
X63903641Y-75230000D01*
X63596359Y-74470000D02*
X63903641Y-74470000D01*
D13*
G04 #@! TO.C,U6*
X62426250Y-65453750D02*
X61786250Y-65453750D01*
X63986250Y-68153750D02*
X63986250Y-67673750D01*
X63986250Y-65933750D02*
X63986250Y-65453750D01*
X63986250Y-68153750D02*
X63346250Y-68153750D01*
X62426250Y-68153750D02*
X61786250Y-68153750D01*
X63986250Y-65453750D02*
X63346250Y-65453750D01*
X61786250Y-65933750D02*
X61786250Y-65453750D01*
D12*
G04 #@! TO.C,C1*
X102760000Y-82417164D02*
X102760000Y-82632836D01*
X102040000Y-82417164D02*
X102040000Y-82632836D01*
G04 #@! TO.C,R3*
X77971359Y-76530000D02*
X78278641Y-76530000D01*
X77971359Y-75770000D02*
X78278641Y-75770000D01*
G04 #@! TO.C,J1*
X98050000Y-79440000D02*
X98050000Y-81500000D01*
X91990000Y-79440000D02*
X91990000Y-83560000D01*
X99050000Y-79440000D02*
X100110000Y-79440000D01*
X98050000Y-81500000D02*
X100110000Y-81500000D01*
X100110000Y-83560000D02*
X91990000Y-83560000D01*
X100110000Y-79440000D02*
X100110000Y-80500000D01*
X100110000Y-81500000D02*
X100110000Y-83560000D01*
X98050000Y-79440000D02*
X91990000Y-79440000D01*
G04 #@! TO.C,TH1*
X70672936Y-75985000D02*
X71127064Y-75985000D01*
X70672936Y-74515000D02*
X71127064Y-74515000D01*
G04 #@! TO.C,C7*
X72026658Y-57420000D02*
X71745498Y-57420000D01*
X72026658Y-56400000D02*
X71745498Y-56400000D01*
G04 #@! TO.C,U5*
X61991668Y-60217498D02*
X63731668Y-60217498D01*
X62431668Y-63037498D02*
X63731668Y-63037498D01*
G04 #@! TO.C,C3*
X79135000Y-65542164D02*
X79135000Y-65757836D01*
X78415000Y-65542164D02*
X78415000Y-65757836D01*
G04 #@! TO.C,R1*
X102805000Y-80503641D02*
X102805000Y-80196359D01*
X102045000Y-80503641D02*
X102045000Y-80196359D01*
G04 #@! TO.C,Q1*
X69595000Y-69190000D02*
X70525000Y-69190000D01*
X72755000Y-69190000D02*
X71825000Y-69190000D01*
X72755000Y-69190000D02*
X72755000Y-70650000D01*
X69595000Y-69190000D02*
X69595000Y-71350000D01*
G04 #@! TO.C,C9*
X66191162Y-72448511D02*
X66406834Y-72448511D01*
X66191162Y-71728511D02*
X66406834Y-71728511D01*
G04 #@! TO.C,J3*
X70345000Y-79875000D02*
X70345000Y-81795000D01*
X79505000Y-81795000D02*
X79505000Y-79875000D01*
X70345000Y-85510000D02*
X70345000Y-83805000D01*
X79505000Y-83805000D02*
X79505000Y-85510000D01*
X79505000Y-85510000D02*
X70345000Y-85510000D01*
G04 #@! TD*
M02*
